{
  "arch": "x86_64",
  "build": "h024ee3a_2",
  "build_number": 2,
  "channel": "https://repo.anaconda.com/pkgs/main/linux-64",
  "constrains": [],
  "depends": [
    "libgcc-ng >=7.2.0"
  ],
  "features": "",
  "fn": "jpeg-9b-h024ee3a_2.conda",
  "legacy_bz2_md5": "30883b0c44d35192a9b7967b0da9bf98",
  "license": "Custom free software license",
  "md5": "d8f003a909108eaa4a6d898dacb740f8",
  "name": "jpeg",
  "platform": "linux",
  "sha256": "3771b5c80500813ee442f6360a1453fc32d30e84d9f6ea71ef0c67de1860a0a0",
  "size": 219316,
  "subdir": "linux-64",
  "timestamp": 1510201951443,
  "track_features": "",
  "url": "https://repo.anaconda.com/pkgs/main/linux-64/jpeg-9b-h024ee3a_2.conda",
  "version": "9b"
}