{
  "channels": [
    "defaults"
  ],
  "conda_build_version": "3.8.0",
  "conda_private": false,
  "conda_version": "4.5.0",
  "doc_source_url": "https://cgit.freedesktop.org/gstreamer/gstreamer/tree/docs",
  "env_vars": {
    "CIO_TEST": "<not set>",
    "CONDA_DEFAULT_ENV": "<not set>",
    "CONDA_ENVS_PATH": "<not set>",
    "LD_LIBRARY_PATH": "<not set>",
    "PATH": "/opt/conda/bin:/usr/local/sbin:/usr/local/bin:/usr/sbin:/usr/bin:/sbin:/bin",
    "PYTHONHOME": "<not set>",
    "PYTHONPATH": "<not set>"
  },
  "root_pkgs": [
    "conda 4.5.0 py36_0",
    "conda-verify 2.0.0 py36h98955d8_0",
    "clyent 1.2.2 py36h7e57e65_1",
    "asn1crypto 0.24.0 py36_0",
    "git 2.16.1 pl526hb75a9fb_1",
    "jupyter_core 4.4.0 py36h7c827e3_0",
    "cffi 1.11.4 py36h9745a5d_0",
    "libedit 3.1 heed3624_0",
    "pyopenssl 17.5.0 py36h20ba746_0",
    "pkginfo 1.4.2 py36_1",
    "libgcc-ng 7.2.0 h7cc24e2_2",
    "urllib3 1.22 py36hbe7ace6_0",
    "pyyaml 3.12 py36hafb9ca4_1",
    "python-dateutil 2.7.2 py36_0",
    "xz 5.2.3 h55aa19d_2",
    "expat 2.2.5 he0dffb1_0",
    "yaml 0.1.7 had09818_2",
    "pytz 2018.3 py36_0",
    "requests 2.18.4 py36he2e5f8d_1",
    "curl 7.59.0 h84994c4_0",
    "idna 2.6 py36h82fb2a8_1",
    "cryptography 2.1.4 py36hd09be54_0",
    "gxx_impl_linux-64 7.2.0 hdf63c60_3",
    "conda-env 2.6.0 h36134e3_1",
    "jinja2 2.10 py36ha16c418_0",
    "gcc_impl_linux-64 7.2.0 habb00fd_3",
    "conda-build 3.8.0 py36_0",
    "gcc_linux-64 7.2.0 26",
    "anaconda-client 1.6.14 py36_0",
    "nbformat 4.4.0 py36h31c9010_0",
    "glob2 0.6 py36he249c77_0",
    "binutils_impl_linux-64 2.28.1 had2808c_3",
    "chardet 3.0.4 py36h0f667ec_1",
    "jsonschema 2.6.0 py36h006f8b5_0",
    "ncurses 6.0 h9df7e31_2",
    "ipython_genutils 0.2.0 py36hb52b0d5_0",
    "binutils_linux-64 7.2.0 26",
    "libcurl 7.59.0 h1ad7b7a_0",
    "certifi 2018.1.18 py36_0",
    "pycosat 0.6.3 py36h0a5515d_0",
    "readline 7.0 ha6073c6_4",
    "libssh2 1.8.0 h9cfc8f7_4",
    "libstdcxx-ng 7.2.0 h7a57d05_2",
    "wheel 0.30.0 py36hfd4bba0_1",
    "decorator 4.2.1 py36_0",
    "tk 8.6.7 hc745277_3",
    "filelock 3.0.4 py36_0",
    "perl 5.26.0 hae598fd_0",
    "gxx_linux-64 7.2.0 26",
    "pip 9.0.1 py36h6c6f9ce_4",
    "traitlets 4.3.2 py36h674d592_0",
    "psutil 5.4.3 py36h14c3975_0",
    "libffi 3.2.1 hd88cf55_4",
    "setuptools 38.4.0 py36_0",
    "markupsafe 1.0 py36hd9260cd_1",
    "pysocks 1.6.7 py36hd97a5b1_1",
    "six 1.11.0 py36h372c433_1",
    "pycparser 2.18 py36hf9f622e_1",
    "sqlite 3.22.0 h1bed415_0",
    "openssl 1.0.2o h20670df_0",
    "patchelf 0.9 hf79760b_2",
    "ruamel_yaml 0.15.35 py36h14c3975_1",
    "beautifulsoup4 4.6.0 py36h49b8c8c_1",
    "python 3.6.4 hc3d631a_1",
    "zlib 1.2.11 ha838bed_2",
    "ca-certificates 2018.03.07 0"
  ],
  "summary": "Library for constructing graphs of media-handling components"
}