{
  "build": "he6710b0_2",
  "build_number": 2,
  "channel": "https://repo.anaconda.com/pkgs/main/linux-64",
  "constrains": [],
  "depends": [
    "libgcc-ng >=7.3.0",
    "libstdcxx-ng >=7.3.0"
  ],
  "extracted_package_dir": "/home/student2/PycharmProjects/masterproject/relook/jsk_apc/demos/instance_occlsegm/.anaconda3/pkgs/expat-2.2.10-he6710b0_2",
  "features": "",
  "files": [
    "bin/xmlwf",
    "include/expat.h",
    "include/expat_config.h",
    "include/expat_external.h",
    "lib/libexpat.a",
    "lib/libexpat.so",
    "lib/libexpat.so.1",
    "lib/libexpat.so.1.6.12",
    "lib/pkgconfig/expat.pc",
    "share/doc/expat/AUTHORS",
    "share/doc/expat/changelog"
  ],
  "fn": "expat-2.2.10-he6710b0_2.conda",
  "legacy_bz2_md5": "5de87d9faa999a0797c1e16596580ca0",
  "license": "MIT",
  "license_family": "MIT",
  "link": {
    "source": "/home/student2/PycharmProjects/masterproject/relook/jsk_apc/demos/instance_occlsegm/.anaconda3/pkgs/expat-2.2.10-he6710b0_2",
    "type": 1
  },
  "md5": "e8b086ca590c1bd0d2a709d3affbda48",
  "name": "expat",
  "package_tarball_full_path": "/home/student2/PycharmProjects/masterproject/relook/jsk_apc/demos/instance_occlsegm/.anaconda3/pkgs/expat-2.2.10-he6710b0_2.conda",
  "paths_data": {
    "paths": [
      {
        "_path": "bin/xmlwf",
        "path_type": "hardlink",
        "sha256": "067b700a441507dac729af2cf128b2690b762d31045e74001d62d762cc5d2577",
        "sha256_in_prefix": "067b700a441507dac729af2cf128b2690b762d31045e74001d62d762cc5d2577",
        "size_in_bytes": 41272
      },
      {
        "_path": "include/expat.h",
        "path_type": "hardlink",
        "sha256": "a64de342ea7cd67654112d28ca318d103ef7dd0326ceccb6e153706e0be712ed",
        "sha256_in_prefix": "a64de342ea7cd67654112d28ca318d103ef7dd0326ceccb6e153706e0be712ed",
        "size_in_bytes": 41473
      },
      {
        "_path": "include/expat_config.h",
        "path_type": "hardlink",
        "sha256": "a7ad80297f8cc29289295a16daee7fba21752752ca5c66d08dbf1ac4aa1f95ec",
        "sha256_in_prefix": "a7ad80297f8cc29289295a16daee7fba21752752ca5c66d08dbf1ac4aa1f95ec",
        "size_in_bytes": 3839
      },
      {
        "_path": "include/expat_external.h",
        "path_type": "hardlink",
        "sha256": "0215a7cd90a6643a751ded053beb0fc6721d78ff3be65ae4653d262b8e7403fe",
        "sha256_in_prefix": "0215a7cd90a6643a751ded053beb0fc6721d78ff3be65ae4653d262b8e7403fe",
        "size_in_bytes": 5528
      },
      {
        "_path": "lib/libexpat.a",
        "path_type": "hardlink",
        "sha256": "9be583de570db3d16816bad963ec54902aba85af319ea59125b9061e68d83a38",
        "sha256_in_prefix": "9be583de570db3d16816bad963ec54902aba85af319ea59125b9061e68d83a38",
        "size_in_bytes": 529046
      },
      {
        "_path": "lib/libexpat.so",
        "path_type": "softlink",
        "sha256": "1b00af1091449dfaf7b6665792720eb3a891ca939224369fd32442882dfb4760",
        "size_in_bytes": 225240
      },
      {
        "_path": "lib/libexpat.so.1",
        "path_type": "softlink",
        "sha256": "1b00af1091449dfaf7b6665792720eb3a891ca939224369fd32442882dfb4760",
        "size_in_bytes": 225240
      },
      {
        "_path": "lib/libexpat.so.1.6.12",
        "path_type": "hardlink",
        "sha256": "1b00af1091449dfaf7b6665792720eb3a891ca939224369fd32442882dfb4760",
        "sha256_in_prefix": "1b00af1091449dfaf7b6665792720eb3a891ca939224369fd32442882dfb4760",
        "size_in_bytes": 225240
      },
      {
        "_path": "lib/pkgconfig/expat.pc",
        "file_mode": "text",
        "path_type": "hardlink",
        "prefix_placeholder": "/tmp/build/80754af9/expat_1602279232443/_h_env_placehold_placehold_placehold_placehold_placehold_placehold_placehold_placehold_placehold_placehold_placehold_placehold_placehold_placehold_placehold_placehold_placehold_placehold_placehold_placehold_placehol",
        "sha256": "62374924dc4ba8af2cd16f721089b161a4a474c723583b10e4732896ab95c21d",
        "sha256_in_prefix": "47755dc91f99ce10469621cfb703b3a0b8e014266578a8843c9c06ade1965ec8",
        "size_in_bytes": 478
      },
      {
        "_path": "share/doc/expat/AUTHORS",
        "path_type": "hardlink",
        "sha256": "59f14371c6b75912cfebb46e6247ee5146766e803a0365b124e5d3011e7d0877",
        "sha256_in_prefix": "59f14371c6b75912cfebb46e6247ee5146766e803a0365b124e5d3011e7d0877",
        "size_in_bytes": 142
      },
      {
        "_path": "share/doc/expat/changelog",
        "path_type": "hardlink",
        "sha256": "870f7e1e312e0f4c4842cad7f0993bee77b82d872fcfcfcf52827d5c306b49c5",
        "sha256_in_prefix": "870f7e1e312e0f4c4842cad7f0993bee77b82d872fcfcfcf52827d5c306b49c5",
        "size_in_bytes": 41725
      }
    ],
    "paths_version": 1
  },
  "requested_spec": "None",
  "sha256": "b8e6f0fa7e0586149d833c38cbf46a548fd2ac33219ede74a61b1e2b178906b3",
  "size": 156487,
  "subdir": "linux-64",
  "timestamp": 1602279285212,
  "track_features": "",
  "url": "https://repo.anaconda.com/pkgs/main/linux-64/expat-2.2.10-he6710b0_2.conda",
  "version": "2.2.10"
}