{
  "build": "hb31296c_0",
  "build_number": 0,
  "channel": "https://repo.anaconda.com/pkgs/main/linux-64",
  "constrains": [],
  "depends": [
    "glib >=2.53.6,<3.0a0",
    "libgcc-ng >=7.2.0",
    "xz >=5.2.3,<6.0a0"
  ],
  "extracted_package_dir": "/home/student2/PycharmProjects/masterproject/relook/jsk_apc/demos/instance_occlsegm/.anaconda3/pkgs/gstreamer-1.14.0-hb31296c_0",
  "features": "",
  "files": [
    "bin/gst-inspect-1.0",
    "bin/gst-launch-1.0",
    "bin/gst-stats-1.0",
    "bin/gst-typefind-1.0",
    "include/gstreamer-1.0/gst/base/base-prelude.h",
    "include/gstreamer-1.0/gst/base/base.h",
    "include/gstreamer-1.0/gst/base/gstadapter.h",
    "include/gstreamer-1.0/gst/base/gstaggregator.h",
    "include/gstreamer-1.0/gst/base/gstbaseparse.h",
    "include/gstreamer-1.0/gst/base/gstbasesink.h",
    "include/gstreamer-1.0/gst/base/gstbasesrc.h",
    "include/gstreamer-1.0/gst/base/gstbasetransform.h",
    "include/gstreamer-1.0/gst/base/gstbitreader.h",
    "include/gstreamer-1.0/gst/base/gstbytereader.h",
    "include/gstreamer-1.0/gst/base/gstbytewriter.h",
    "include/gstreamer-1.0/gst/base/gstcollectpads.h",
    "include/gstreamer-1.0/gst/base/gstdataqueue.h",
    "include/gstreamer-1.0/gst/base/gstflowcombiner.h",
    "include/gstreamer-1.0/gst/base/gstpushsrc.h",
    "include/gstreamer-1.0/gst/base/gstqueuearray.h",
    "include/gstreamer-1.0/gst/base/gsttypefindhelper.h",
    "include/gstreamer-1.0/gst/check/check-prelude.h",
    "include/gstreamer-1.0/gst/check/check.h",
    "include/gstreamer-1.0/gst/check/gstbufferstraw.h",
    "include/gstreamer-1.0/gst/check/gstcheck.h",
    "include/gstreamer-1.0/gst/check/gstconsistencychecker.h",
    "include/gstreamer-1.0/gst/check/gstharness.h",
    "include/gstreamer-1.0/gst/check/gsttestclock.h",
    "include/gstreamer-1.0/gst/check/internal-check.h",
    "include/gstreamer-1.0/gst/controller/controller-enumtypes.h",
    "include/gstreamer-1.0/gst/controller/controller-prelude.h",
    "include/gstreamer-1.0/gst/controller/controller.h",
    "include/gstreamer-1.0/gst/controller/gstargbcontrolbinding.h",
    "include/gstreamer-1.0/gst/controller/gstdirectcontrolbinding.h",
    "include/gstreamer-1.0/gst/controller/gstinterpolationcontrolsource.h",
    "include/gstreamer-1.0/gst/controller/gstlfocontrolsource.h",
    "include/gstreamer-1.0/gst/controller/gstproxycontrolbinding.h",
    "include/gstreamer-1.0/gst/controller/gsttimedvaluecontrolsource.h",
    "include/gstreamer-1.0/gst/controller/gsttriggercontrolsource.h",
    "include/gstreamer-1.0/gst/glib-compat.h",
    "include/gstreamer-1.0/gst/gst.h",
    "include/gstreamer-1.0/gst/gstallocator.h",
    "include/gstreamer-1.0/gst/gstatomicqueue.h",
    "include/gstreamer-1.0/gst/gstbin.h",
    "include/gstreamer-1.0/gst/gstbuffer.h",
    "include/gstreamer-1.0/gst/gstbufferlist.h",
    "include/gstreamer-1.0/gst/gstbufferpool.h",
    "include/gstreamer-1.0/gst/gstbus.h",
    "include/gstreamer-1.0/gst/gstcaps.h",
    "include/gstreamer-1.0/gst/gstcapsfeatures.h",
    "include/gstreamer-1.0/gst/gstchildproxy.h",
    "include/gstreamer-1.0/gst/gstclock.h",
    "include/gstreamer-1.0/gst/gstcompat.h",
    "include/gstreamer-1.0/gst/gstconfig.h",
    "include/gstreamer-1.0/gst/gstcontext.h",
    "include/gstreamer-1.0/gst/gstcontrolbinding.h",
    "include/gstreamer-1.0/gst/gstcontrolsource.h",
    "include/gstreamer-1.0/gst/gstdatetime.h",
    "include/gstreamer-1.0/gst/gstdebugutils.h",
    "include/gstreamer-1.0/gst/gstdevice.h",
    "include/gstreamer-1.0/gst/gstdevicemonitor.h",
    "include/gstreamer-1.0/gst/gstdeviceprovider.h",
    "include/gstreamer-1.0/gst/gstdeviceproviderfactory.h",
    "include/gstreamer-1.0/gst/gstdynamictypefactory.h",
    "include/gstreamer-1.0/gst/gstelement.h",
    "include/gstreamer-1.0/gst/gstelementfactory.h",
    "include/gstreamer-1.0/gst/gstelementmetadata.h",
    "include/gstreamer-1.0/gst/gstenumtypes.h",
    "include/gstreamer-1.0/gst/gsterror.h",
    "include/gstreamer-1.0/gst/gstevent.h",
    "include/gstreamer-1.0/gst/gstformat.h",
    "include/gstreamer-1.0/gst/gstghostpad.h",
    "include/gstreamer-1.0/gst/gstinfo.h",
    "include/gstreamer-1.0/gst/gstiterator.h",
    "include/gstreamer-1.0/gst/gstmacros.h",
    "include/gstreamer-1.0/gst/gstmemory.h",
    "include/gstreamer-1.0/gst/gstmessage.h",
    "include/gstreamer-1.0/gst/gstmeta.h",
    "include/gstreamer-1.0/gst/gstminiobject.h",
    "include/gstreamer-1.0/gst/gstobject.h",
    "include/gstreamer-1.0/gst/gstpad.h",
    "include/gstreamer-1.0/gst/gstpadtemplate.h",
    "include/gstreamer-1.0/gst/gstparamspecs.h",
    "include/gstreamer-1.0/gst/gstparse.h",
    "include/gstreamer-1.0/gst/gstpipeline.h",
    "include/gstreamer-1.0/gst/gstplugin.h",
    "include/gstreamer-1.0/gst/gstpluginfeature.h",
    "include/gstreamer-1.0/gst/gstpoll.h",
    "include/gstreamer-1.0/gst/gstpreset.h",
    "include/gstreamer-1.0/gst/gstpromise.h",
    "include/gstreamer-1.0/gst/gstprotection.h",
    "include/gstreamer-1.0/gst/gstquery.h",
    "include/gstreamer-1.0/gst/gstregistry.h",
    "include/gstreamer-1.0/gst/gstsample.h",
    "include/gstreamer-1.0/gst/gstsegment.h",
    "include/gstreamer-1.0/gst/gststreamcollection.h",
    "include/gstreamer-1.0/gst/gststreams.h",
    "include/gstreamer-1.0/gst/gststructure.h",
    "include/gstreamer-1.0/gst/gstsystemclock.h",
    "include/gstreamer-1.0/gst/gsttaglist.h",
    "include/gstreamer-1.0/gst/gsttagsetter.h",
    "include/gstreamer-1.0/gst/gsttask.h",
    "include/gstreamer-1.0/gst/gsttaskpool.h",
    "include/gstreamer-1.0/gst/gsttoc.h",
    "include/gstreamer-1.0/gst/gsttocsetter.h",
    "include/gstreamer-1.0/gst/gsttracer.h",
    "include/gstreamer-1.0/gst/gsttracerfactory.h",
    "include/gstreamer-1.0/gst/gsttracerrecord.h",
    "include/gstreamer-1.0/gst/gsttypefind.h",
    "include/gstreamer-1.0/gst/gsttypefindfactory.h",
    "include/gstreamer-1.0/gst/gsturi.h",
    "include/gstreamer-1.0/gst/gstutils.h",
    "include/gstreamer-1.0/gst/gstvalue.h",
    "include/gstreamer-1.0/gst/gstversion.h",
    "include/gstreamer-1.0/gst/math-compat.h",
    "include/gstreamer-1.0/gst/net/gstnet.h",
    "include/gstreamer-1.0/gst/net/gstnetaddressmeta.h",
    "include/gstreamer-1.0/gst/net/gstnetclientclock.h",
    "include/gstreamer-1.0/gst/net/gstnetcontrolmessagemeta.h",
    "include/gstreamer-1.0/gst/net/gstnettimepacket.h",
    "include/gstreamer-1.0/gst/net/gstnettimeprovider.h",
    "include/gstreamer-1.0/gst/net/gstptpclock.h",
    "include/gstreamer-1.0/gst/net/net-prelude.h",
    "include/gstreamer-1.0/gst/net/net.h",
    "lib/gstreamer-1.0/libgstcoreelements.la",
    "lib/gstreamer-1.0/libgstcoreelements.so",
    "lib/gstreamer-1.0/libgstcoretracers.la",
    "lib/gstreamer-1.0/libgstcoretracers.so",
    "lib/libgstbase-1.0.la",
    "lib/libgstbase-1.0.so",
    "lib/libgstbase-1.0.so.0",
    "lib/libgstbase-1.0.so.0.1400.0",
    "lib/libgstcheck-1.0.la",
    "lib/libgstcheck-1.0.so",
    "lib/libgstcheck-1.0.so.0",
    "lib/libgstcheck-1.0.so.0.1400.0",
    "lib/libgstcontroller-1.0.la",
    "lib/libgstcontroller-1.0.so",
    "lib/libgstcontroller-1.0.so.0",
    "lib/libgstcontroller-1.0.so.0.1400.0",
    "lib/libgstnet-1.0.la",
    "lib/libgstnet-1.0.so",
    "lib/libgstnet-1.0.so.0",
    "lib/libgstnet-1.0.so.0.1400.0",
    "lib/libgstreamer-1.0.la",
    "lib/libgstreamer-1.0.so",
    "lib/libgstreamer-1.0.so.0",
    "lib/libgstreamer-1.0.so.0.1400.0",
    "lib/pkgconfig/gstreamer-1.0.pc",
    "lib/pkgconfig/gstreamer-base-1.0.pc",
    "lib/pkgconfig/gstreamer-check-1.0.pc",
    "lib/pkgconfig/gstreamer-controller-1.0.pc",
    "lib/pkgconfig/gstreamer-net-1.0.pc",
    "libexec/gstreamer-1.0/gst-completion-helper",
    "libexec/gstreamer-1.0/gst-plugin-scanner",
    "libexec/gstreamer-1.0/gst-ptp-helper"
  ],
  "fn": "gstreamer-1.14.0-hb31296c_0.conda",
  "legacy_bz2_md5": "0eadae498ccec369140cde904ab558b8",
  "link": {
    "source": "/home/student2/PycharmProjects/masterproject/relook/jsk_apc/demos/instance_occlsegm/.anaconda3/pkgs/gstreamer-1.14.0-hb31296c_0",
    "type": 1
  },
  "md5": "db432c4ba913459d99ab4b7facdcae80",
  "name": "gstreamer",
  "package_tarball_full_path": "/home/student2/PycharmProjects/masterproject/relook/jsk_apc/demos/instance_occlsegm/.anaconda3/pkgs/gstreamer-1.14.0-hb31296c_0.conda",
  "paths_data": {
    "paths": [
      {
        "_path": "bin/gst-inspect-1.0",
        "path_type": "hardlink",
        "sha256": "c6049ae4d688a6dabf0363c1fbce71e155ff1633693ffe8257d67e252f1e8c30",
        "sha256_in_prefix": "c6049ae4d688a6dabf0363c1fbce71e155ff1633693ffe8257d67e252f1e8c30",
        "size_in_bytes": 160016
      },
      {
        "_path": "bin/gst-launch-1.0",
        "path_type": "hardlink",
        "sha256": "b07973b366acbcee3bf4df6147c1ac55d6d8b89de51742e2bfe30024111404c8",
        "sha256_in_prefix": "b07973b366acbcee3bf4df6147c1ac55d6d8b89de51742e2bfe30024111404c8",
        "size_in_bytes": 100640
      },
      {
        "_path": "bin/gst-stats-1.0",
        "path_type": "hardlink",
        "sha256": "7040073c1bf8fa132619ad8f89a77c201d75da6c792e7f58d0dab2dc08d0bb73",
        "sha256_in_prefix": "7040073c1bf8fa132619ad8f89a77c201d75da6c792e7f58d0dab2dc08d0bb73",
        "size_in_bytes": 76744
      },
      {
        "_path": "bin/gst-typefind-1.0",
        "path_type": "hardlink",
        "sha256": "2b38832d28f3d15e81a4d0ade99d3bb9c8cb0e47495a91e762253af5a063cc2e",
        "sha256_in_prefix": "2b38832d28f3d15e81a4d0ade99d3bb9c8cb0e47495a91e762253af5a063cc2e",
        "size_in_bytes": 44096
      },
      {
        "_path": "include/gstreamer-1.0/gst/base/base-prelude.h",
        "path_type": "hardlink",
        "sha256": "7ef99a387fbc00d61028946b02833ae5ba870df7c8591cb9ea8341ce5685db28",
        "sha256_in_prefix": "7ef99a387fbc00d61028946b02833ae5ba870df7c8591cb9ea8341ce5685db28",
        "size_in_bytes": 1066
      },
      {
        "_path": "include/gstreamer-1.0/gst/base/base.h",
        "path_type": "hardlink",
        "sha256": "0ea02a45ce95d46f46a46e77c5c4e0830c90f5bbaecfd42aef9092dbe183c47c",
        "sha256_in_prefix": "0ea02a45ce95d46f46a46e77c5c4e0830c90f5bbaecfd42aef9092dbe183c47c",
        "size_in_bytes": 1510
      },
      {
        "_path": "include/gstreamer-1.0/gst/base/gstadapter.h",
        "path_type": "hardlink",
        "sha256": "fe7e6c8faf572a45f82eb726954fd12ecb205dff9b8a1bfb40bf7630dd22e185",
        "sha256_in_prefix": "fe7e6c8faf572a45f82eb726954fd12ecb205dff9b8a1bfb40bf7630dd22e185",
        "size_in_bytes": 5387
      },
      {
        "_path": "include/gstreamer-1.0/gst/base/gstaggregator.h",
        "path_type": "hardlink",
        "sha256": "4e50eee13650daa73475299bd36fc9f159e63efc57ea35bdc65862d73cef7476",
        "sha256_in_prefix": "4e50eee13650daa73475299bd36fc9f159e63efc57ea35bdc65862d73cef7476",
        "size_in_bytes": 14844
      },
      {
        "_path": "include/gstreamer-1.0/gst/base/gstbaseparse.h",
        "path_type": "hardlink",
        "sha256": "172b824905a338c092d2245c292e53a8ae085d06356447b915f8bc866d1cc18d",
        "sha256_in_prefix": "172b824905a338c092d2245c292e53a8ae085d06356447b915f8bc866d1cc18d",
        "size_in_bytes": 15968
      },
      {
        "_path": "include/gstreamer-1.0/gst/base/gstbasesink.h",
        "path_type": "hardlink",
        "sha256": "ec9483cccc35d557fe1e50a0d1dc89055b07b21400cb5f46693b497dc143830a",
        "sha256_in_prefix": "ec9483cccc35d557fe1e50a0d1dc89055b07b21400cb5f46693b497dc143830a",
        "size_in_bytes": 12375
      },
      {
        "_path": "include/gstreamer-1.0/gst/base/gstbasesrc.h",
        "path_type": "hardlink",
        "sha256": "ffb5570b4bb9219906e61f1131e11c23b3a9075350614eab98b39e5e8376ccdc",
        "sha256_in_prefix": "ffb5570b4bb9219906e61f1131e11c23b3a9075350614eab98b39e5e8376ccdc",
        "size_in_bytes": 12607
      },
      {
        "_path": "include/gstreamer-1.0/gst/base/gstbasetransform.h",
        "path_type": "hardlink",
        "sha256": "b413baec2b951cd3ade76117b4e49a1087726092e1b374639e3e158cdb77cde2",
        "sha256_in_prefix": "b413baec2b951cd3ade76117b4e49a1087726092e1b374639e3e158cdb77cde2",
        "size_in_bytes": 16768
      },
      {
        "_path": "include/gstreamer-1.0/gst/base/gstbitreader.h",
        "path_type": "hardlink",
        "sha256": "31be5c1bba0fdde497489c7c795b1d837ac2b61c74cd684faf152794248c6c2e",
        "sha256_in_prefix": "31be5c1bba0fdde497489c7c795b1d837ac2b61c74cd684faf152794248c6c2e",
        "size_in_bytes": 9743
      },
      {
        "_path": "include/gstreamer-1.0/gst/base/gstbytereader.h",
        "path_type": "hardlink",
        "sha256": "15b8c5b821b9e3d97fbb129b6d6be7703139204d200852478b5525117026770c",
        "sha256_in_prefix": "15b8c5b821b9e3d97fbb129b6d6be7703139204d200852478b5525117026770c",
        "size_in_bytes": 25222
      },
      {
        "_path": "include/gstreamer-1.0/gst/base/gstbytewriter.h",
        "path_type": "hardlink",
        "sha256": "21260d3a1af456097d50777dc9aaa66903eca79868e9f9adb34d3baa623383a0",
        "sha256_in_prefix": "21260d3a1af456097d50777dc9aaa66903eca79868e9f9adb34d3baa623383a0",
        "size_in_bytes": 16345
      },
      {
        "_path": "include/gstreamer-1.0/gst/base/gstcollectpads.h",
        "path_type": "hardlink",
        "sha256": "c6c4286185eaa237365f4fadde2b93a30cad1db3dd4688543443da954076afe7",
        "sha256_in_prefix": "c6c4286185eaa237365f4fadde2b93a30cad1db3dd4688543443da954076afe7",
        "size_in_bytes": 17320
      },
      {
        "_path": "include/gstreamer-1.0/gst/base/gstdataqueue.h",
        "path_type": "hardlink",
        "sha256": "0db9fb4522da3e6bf10d1f64b254150c9a5a6bdbc8c702d2b40d22f0464e2b18",
        "sha256_in_prefix": "0db9fb4522da3e6bf10d1f64b254150c9a5a6bdbc8c702d2b40d22f0464e2b18",
        "size_in_bytes": 5625
      },
      {
        "_path": "include/gstreamer-1.0/gst/base/gstflowcombiner.h",
        "path_type": "hardlink",
        "sha256": "3098ae1cb7deee0850ad229776bd3ae7913130eda3113219343d54529bc374eb",
        "sha256_in_prefix": "3098ae1cb7deee0850ad229776bd3ae7913130eda3113219343d54529bc374eb",
        "size_in_bytes": 2564
      },
      {
        "_path": "include/gstreamer-1.0/gst/base/gstpushsrc.h",
        "path_type": "hardlink",
        "sha256": "2e7bc09edf1f57ac2c51f800e94fc0de14281bc3ab02bbc31a8bcf80f7996a98",
        "sha256_in_prefix": "2e7bc09edf1f57ac2c51f800e94fc0de14281bc3ab02bbc31a8bcf80f7996a98",
        "size_in_bytes": 3400
      },
      {
        "_path": "include/gstreamer-1.0/gst/base/gstqueuearray.h",
        "path_type": "hardlink",
        "sha256": "76b570a0271a44df574811027b278eb510b7cd8e2752891e6d052cb3e0d5072d",
        "sha256_in_prefix": "76b570a0271a44df574811027b278eb510b7cd8e2752891e6d052cb3e0d5072d",
        "size_in_bytes": 3152
      },
      {
        "_path": "include/gstreamer-1.0/gst/base/gsttypefindhelper.h",
        "path_type": "hardlink",
        "sha256": "ab4877760c3eecb2117d2043bf4fb2ac906c8e4e66da0f955dd3d5e9cebdb774",
        "sha256_in_prefix": "ab4877760c3eecb2117d2043bf4fb2ac906c8e4e66da0f955dd3d5e9cebdb774",
        "size_in_bytes": 3570
      },
      {
        "_path": "include/gstreamer-1.0/gst/check/check-prelude.h",
        "path_type": "hardlink",
        "sha256": "66675644dcdd62e2439b69dd792d6183740cc69bd196e8885118c5164665e315",
        "sha256_in_prefix": "66675644dcdd62e2439b69dd792d6183740cc69bd196e8885118c5164665e315",
        "size_in_bytes": 1074
      },
      {
        "_path": "include/gstreamer-1.0/gst/check/check.h",
        "path_type": "hardlink",
        "sha256": "55ac0295f87164e15687cbb5bf60a8416e108c046e16afaf9b93068922910758",
        "sha256_in_prefix": "55ac0295f87164e15687cbb5bf60a8416e108c046e16afaf9b93068922910758",
        "size_in_bytes": 1169
      },
      {
        "_path": "include/gstreamer-1.0/gst/check/gstbufferstraw.h",
        "path_type": "hardlink",
        "sha256": "ca8d017467e073c2fc0fe0f79b83bb29ea91f044a044ae5a0a8ee3dfb12aa695",
        "sha256_in_prefix": "ca8d017467e073c2fc0fe0f79b83bb29ea91f044a044ae5a0a8ee3dfb12aa695",
        "size_in_bytes": 1259
      },
      {
        "_path": "include/gstreamer-1.0/gst/check/gstcheck.h",
        "path_type": "hardlink",
        "sha256": "f0b90dd3faeeacb32f90e6f8d7e4f0d255e049b06d01fd0bb1761099d5b0b8fa",
        "sha256_in_prefix": "f0b90dd3faeeacb32f90e6f8d7e4f0d255e049b06d01fd0bb1761099d5b0b8fa",
        "size_in_bytes": 27404
      },
      {
        "_path": "include/gstreamer-1.0/gst/check/gstconsistencychecker.h",
        "path_type": "hardlink",
        "sha256": "1a6987666b247d0eff70dccff60da927aaf6b48c6a46e6f64e8de0499ab88947",
        "sha256_in_prefix": "1a6987666b247d0eff70dccff60da927aaf6b48c6a46e6f64e8de0499ab88947",
        "size_in_bytes": 1636
      },
      {
        "_path": "include/gstreamer-1.0/gst/check/gstharness.h",
        "path_type": "hardlink",
        "sha256": "907b5d2620d660d757faf68d3f42914e818808e44762bcf8e5dae09b66dd2976",
        "sha256_in_prefix": "907b5d2620d660d757faf68d3f42914e818808e44762bcf8e5dae09b66dd2976",
        "size_in_bytes": 16889
      },
      {
        "_path": "include/gstreamer-1.0/gst/check/gsttestclock.h",
        "path_type": "hardlink",
        "sha256": "004fb1af8e7ba42f0bf7e96b08939e62e179c4790adba8d8dd9f8e61361c0cde",
        "sha256_in_prefix": "004fb1af8e7ba42f0bf7e96b08939e62e179c4790adba8d8dd9f8e61361c0cde",
        "size_in_bytes": 4711
      },
      {
        "_path": "include/gstreamer-1.0/gst/check/internal-check.h",
        "path_type": "hardlink",
        "sha256": "e36060bc275eb78d48a2f0de5b883fd69b902f13690511a6db848b515f1ae069",
        "sha256_in_prefix": "e36060bc275eb78d48a2f0de5b883fd69b902f13690511a6db848b515f1ae069",
        "size_in_bytes": 39720
      },
      {
        "_path": "include/gstreamer-1.0/gst/controller/controller-enumtypes.h",
        "path_type": "hardlink",
        "sha256": "41551b4318f620edbc1c9a11b393c521e682492ef3fa0f73e52fc7764f8c0793",
        "sha256_in_prefix": "41551b4318f620edbc1c9a11b393c521e682492ef3fa0f73e52fc7764f8c0793",
        "size_in_bytes": 591
      },
      {
        "_path": "include/gstreamer-1.0/gst/controller/controller-prelude.h",
        "path_type": "hardlink",
        "sha256": "5395b64a8791de3113e056e36bcdb0419ca39cdf976babe43385f2dd7dd2096e",
        "sha256_in_prefix": "5395b64a8791de3113e056e36bcdb0419ca39cdf976babe43385f2dd7dd2096e",
        "size_in_bytes": 1114
      },
      {
        "_path": "include/gstreamer-1.0/gst/controller/controller.h",
        "path_type": "hardlink",
        "sha256": "294876137de4bd581a1b766e08f93f64d46e3e1f30a6d16323cac0c7c5dfc917",
        "sha256_in_prefix": "294876137de4bd581a1b766e08f93f64d46e3e1f30a6d16323cac0c7c5dfc917",
        "size_in_bytes": 1385
      },
      {
        "_path": "include/gstreamer-1.0/gst/controller/gstargbcontrolbinding.h",
        "path_type": "hardlink",
        "sha256": "386c347dac703cfdff4f8ac6e2ab1b804c9b1805349b555e270e5e148c54648e",
        "sha256_in_prefix": "386c347dac703cfdff4f8ac6e2ab1b804c9b1805349b555e270e5e148c54648e",
        "size_in_bytes": 3400
      },
      {
        "_path": "include/gstreamer-1.0/gst/controller/gstdirectcontrolbinding.h",
        "path_type": "hardlink",
        "sha256": "28b7a6f4f82c0eeaf31c23e5f6253e04b019dc3e9066771e3ef7c1f92a238df4",
        "sha256_in_prefix": "28b7a6f4f82c0eeaf31c23e5f6253e04b019dc3e9066771e3ef7c1f92a238df4",
        "size_in_bytes": 4345
      },
      {
        "_path": "include/gstreamer-1.0/gst/controller/gstinterpolationcontrolsource.h",
        "path_type": "hardlink",
        "sha256": "45467cf17c7d63ac53c19eaf90c5736f78b5fa7175a933904ad863995092625e",
        "sha256_in_prefix": "45467cf17c7d63ac53c19eaf90c5736f78b5fa7175a933904ad863995092625e",
        "size_in_bytes": 3863
      },
      {
        "_path": "include/gstreamer-1.0/gst/controller/gstlfocontrolsource.h",
        "path_type": "hardlink",
        "sha256": "43ed61a4281feed59d4552bc15fc05d6ef5e063d604440c14a95371b1ad41c18",
        "sha256_in_prefix": "43ed61a4281feed59d4552bc15fc05d6ef5e063d604440c14a95371b1ad41c18",
        "size_in_bytes": 3239
      },
      {
        "_path": "include/gstreamer-1.0/gst/controller/gstproxycontrolbinding.h",
        "path_type": "hardlink",
        "sha256": "5098424c5ef3ffcda44e6273caaa0ab1fc55eb15eb6d81e12c8a9cf2c843ff48",
        "sha256_in_prefix": "5098424c5ef3ffcda44e6273caaa0ab1fc55eb15eb6d81e12c8a9cf2c843ff48",
        "size_in_bytes": 2939
      },
      {
        "_path": "include/gstreamer-1.0/gst/controller/gsttimedvaluecontrolsource.h",
        "path_type": "hardlink",
        "sha256": "df6689fb91d9894f6928e73c53b41be69020e96708037d957d441d746c45b973",
        "sha256_in_prefix": "df6689fb91d9894f6928e73c53b41be69020e96708037d957d441d746c45b973",
        "size_in_bytes": 5781
      },
      {
        "_path": "include/gstreamer-1.0/gst/controller/gsttriggercontrolsource.h",
        "path_type": "hardlink",
        "sha256": "65413fc4521d72064b02827497b275776c0d738eea0c6469202d1336b98669ab",
        "sha256_in_prefix": "65413fc4521d72064b02827497b275776c0d738eea0c6469202d1336b98669ab",
        "size_in_bytes": 3029
      },
      {
        "_path": "include/gstreamer-1.0/gst/glib-compat.h",
        "path_type": "hardlink",
        "sha256": "7bfbb486eb1eacb076f2c3194cec22bd918b105a286c98afbdd0c1d3e70c48b0",
        "sha256_in_prefix": "7bfbb486eb1eacb076f2c3194cec22bd918b105a286c98afbdd0c1d3e70c48b0",
        "size_in_bytes": 1312
      },
      {
        "_path": "include/gstreamer-1.0/gst/gst.h",
        "path_type": "hardlink",
        "sha256": "7fa72473069f8cac79a3cdf2ca565efaad022db653d02ca8b0cb04ccbce5b63d",
        "sha256_in_prefix": "7fa72473069f8cac79a3cdf2ca565efaad022db653d02ca8b0cb04ccbce5b63d",
        "size_in_bytes": 3764
      },
      {
        "_path": "include/gstreamer-1.0/gst/gstallocator.h",
        "path_type": "hardlink",
        "sha256": "47504c54a5a2fd677e3dec0964a2f1e31293ce9a8ff848ed119bec305530d842",
        "sha256_in_prefix": "47504c54a5a2fd677e3dec0964a2f1e31293ce9a8ff848ed119bec305530d842",
        "size_in_bytes": 6216
      },
      {
        "_path": "include/gstreamer-1.0/gst/gstatomicqueue.h",
        "path_type": "hardlink",
        "sha256": "8504765137d682ea2aa8a9fd29be3e5e555e8ec088a04b0728e19bb9445b5b79",
        "sha256_in_prefix": "8504765137d682ea2aa8a9fd29be3e5e555e8ec088a04b0728e19bb9445b5b79",
        "size_in_bytes": 2116
      },
      {
        "_path": "include/gstreamer-1.0/gst/gstbin.h",
        "path_type": "hardlink",
        "sha256": "e5af31fd81c590c104bad8c110bfb880cffccdeb9bd7c6169feb653477d4d8ea",
        "sha256_in_prefix": "e5af31fd81c590c104bad8c110bfb880cffccdeb9bd7c6169feb653477d4d8ea",
        "size_in_bytes": 8087
      },
      {
        "_path": "include/gstreamer-1.0/gst/gstbuffer.h",
        "path_type": "hardlink",
        "sha256": "98851b40e43a62117996f88383e993d3b6553dc3644d58a2443144fc3c7a2e3d",
        "sha256_in_prefix": "98851b40e43a62117996f88383e993d3b6553dc3644d58a2443144fc3c7a2e3d",
        "size_in_bytes": 28882
      },
      {
        "_path": "include/gstreamer-1.0/gst/gstbufferlist.h",
        "path_type": "hardlink",
        "sha256": "3f73ca9cbc93df073372b78c276932daf2c84bbc6f5e05ce05d9ec6cf2adc57d",
        "sha256_in_prefix": "3f73ca9cbc93df073372b78c276932daf2c84bbc6f5e05ce05d9ec6cf2adc57d",
        "size_in_bytes": 6036
      },
      {
        "_path": "include/gstreamer-1.0/gst/gstbufferpool.h",
        "path_type": "hardlink",
        "sha256": "07c6f4a76d127d3cedd80246a62d1c40235eb76a3e4c996554c91755dfc3ace6",
        "sha256_in_prefix": "07c6f4a76d127d3cedd80246a62d1c40235eb76a3e4c996554c91755dfc3ace6",
        "size_in_bytes": 10120
      },
      {
        "_path": "include/gstreamer-1.0/gst/gstbus.h",
        "path_type": "hardlink",
        "sha256": "9dd8b0c6e186d8144d60bcf596bdcd8638aed91b52a757bfca42a7d134b93169",
        "sha256_in_prefix": "9dd8b0c6e186d8144d60bcf596bdcd8638aed91b52a757bfca42a7d134b93169",
        "size_in_bytes": 7643
      },
      {
        "_path": "include/gstreamer-1.0/gst/gstcaps.h",
        "path_type": "hardlink",
        "sha256": "0ea260bd5a83a5e0c74588450d898476bc44f5b0736489281558c927e3cbf7c9",
        "sha256_in_prefix": "0ea260bd5a83a5e0c74588450d898476bc44f5b0736489281558c927e3cbf7c9",
        "size_in_bytes": 19670
      },
      {
        "_path": "include/gstreamer-1.0/gst/gstcapsfeatures.h",
        "path_type": "hardlink",
        "sha256": "cf880563e0e806301aa0ea571bf861c909fabb6fa8ae8a058ae43e0746d67266",
        "sha256_in_prefix": "cf880563e0e806301aa0ea571bf861c909fabb6fa8ae8a058ae43e0746d67266",
        "size_in_bytes": 4098
      },
      {
        "_path": "include/gstreamer-1.0/gst/gstchildproxy.h",
        "path_type": "hardlink",
        "sha256": "004ea0c083644c9761cfa8fa91deb253ce6c2fa3a92e2c20ce065ed06ccee34f",
        "sha256_in_prefix": "004ea0c083644c9761cfa8fa91deb253ce6c2fa3a92e2c20ce065ed06ccee34f",
        "size_in_bytes": 4626
      },
      {
        "_path": "include/gstreamer-1.0/gst/gstclock.h",
        "path_type": "hardlink",
        "sha256": "dbac0dda2496f2788f9337148240569bd5e551256befa2b8807155426407c17d",
        "sha256_in_prefix": "dbac0dda2496f2788f9337148240569bd5e551256befa2b8807155426407c17d",
        "size_in_bytes": 21985
      },
      {
        "_path": "include/gstreamer-1.0/gst/gstcompat.h",
        "path_type": "hardlink",
        "sha256": "bc86d1bd8c904339e4f269b1706dd602e71013cae65f318d9f4fe0dbd8ce43bd",
        "sha256_in_prefix": "bc86d1bd8c904339e4f269b1706dd602e71013cae65f318d9f4fe0dbd8ce43bd",
        "size_in_bytes": 3529
      },
      {
        "_path": "include/gstreamer-1.0/gst/gstconfig.h",
        "path_type": "hardlink",
        "sha256": "a7ee796df593688fe9a4591a58ec7da75d5228d9d5cb8fbfd2e79d6d36eb3ea3",
        "sha256_in_prefix": "a7ee796df593688fe9a4591a58ec7da75d5228d9d5cb8fbfd2e79d6d36eb3ea3",
        "size_in_bytes": 6469
      },
      {
        "_path": "include/gstreamer-1.0/gst/gstcontext.h",
        "path_type": "hardlink",
        "sha256": "b1e19f8cf61bd51d29b6f040e4946dd4f73106890ec51368832022c0bceb5fc3",
        "sha256_in_prefix": "b1e19f8cf61bd51d29b6f040e4946dd4f73106890ec51368832022c0bceb5fc3",
        "size_in_bytes": 5098
      },
      {
        "_path": "include/gstreamer-1.0/gst/gstcontrolbinding.h",
        "path_type": "hardlink",
        "sha256": "eeef2241bec0218e2ede912daae5a6f844293291325ca9d652fa2cb71fe58f66",
        "sha256_in_prefix": "eeef2241bec0218e2ede912daae5a6f844293291325ca9d652fa2cb71fe58f66",
        "size_in_bytes": 5144
      },
      {
        "_path": "include/gstreamer-1.0/gst/gstcontrolsource.h",
        "path_type": "hardlink",
        "sha256": "58256b58cf0cbebcb6284f6e36849a3cce28a9d99cf44ba3aeef1e38777ff723",
        "sha256_in_prefix": "58256b58cf0cbebcb6284f6e36849a3cce28a9d99cf44ba3aeef1e38777ff723",
        "size_in_bytes": 4803
      },
      {
        "_path": "include/gstreamer-1.0/gst/gstdatetime.h",
        "path_type": "hardlink",
        "sha256": "aaef4a8f360edcdae31e52972af5661c216a2b094c992cd32c18a4bdbd22655f",
        "sha256_in_prefix": "aaef4a8f360edcdae31e52972af5661c216a2b094c992cd32c18a4bdbd22655f",
        "size_in_bytes": 5295
      },
      {
        "_path": "include/gstreamer-1.0/gst/gstdebugutils.h",
        "path_type": "hardlink",
        "sha256": "29f9d1e9a8f6238beaa18c4065669a5025f1e65e5382140f942d8e2427c2081c",
        "sha256_in_prefix": "29f9d1e9a8f6238beaa18c4065669a5025f1e65e5382140f942d8e2427c2081c",
        "size_in_bytes": 4469
      },
      {
        "_path": "include/gstreamer-1.0/gst/gstdevice.h",
        "path_type": "hardlink",
        "sha256": "95b9a78e37f7bd8953306ee9a5915c7dc62c42f27256c841aa337d0c259e92b1",
        "sha256_in_prefix": "95b9a78e37f7bd8953306ee9a5915c7dc62c42f27256c841aa337d0c259e92b1",
        "size_in_bytes": 3826
      },
      {
        "_path": "include/gstreamer-1.0/gst/gstdevicemonitor.h",
        "path_type": "hardlink",
        "sha256": "e3e2c5c378f1b6f33ec680a32563929360198b9d894485cfeb7af6de66602e56",
        "sha256_in_prefix": "e3e2c5c378f1b6f33ec680a32563929360198b9d894485cfeb7af6de66602e56",
        "size_in_bytes": 3828
      },
      {
        "_path": "include/gstreamer-1.0/gst/gstdeviceprovider.h",
        "path_type": "hardlink",
        "sha256": "dfeb92a4e0e2a53c487e9a42245eb7eb1c547bc17e1975bfc01d34f44d88b5de",
        "sha256_in_prefix": "dfeb92a4e0e2a53c487e9a42245eb7eb1c547bc17e1975bfc01d34f44d88b5de",
        "size_in_bytes": 6646
      },
      {
        "_path": "include/gstreamer-1.0/gst/gstdeviceproviderfactory.h",
        "path_type": "hardlink",
        "sha256": "19783c3a144996613804ce6eb261c86ffbf21fd7e4e9b72ee06510f2066063de",
        "sha256_in_prefix": "19783c3a144996613804ce6eb261c86ffbf21fd7e4e9b72ee06510f2066063de",
        "size_in_bytes": 4246
      },
      {
        "_path": "include/gstreamer-1.0/gst/gstdynamictypefactory.h",
        "path_type": "hardlink",
        "sha256": "96247aa3318b3041801cd653e005a6ceb3773eb0aa5e75f9801d68bd94503b9a",
        "sha256_in_prefix": "96247aa3318b3041801cd653e005a6ceb3773eb0aa5e75f9801d68bd94503b9a",
        "size_in_bytes": 2324
      },
      {
        "_path": "include/gstreamer-1.0/gst/gstelement.h",
        "path_type": "hardlink",
        "sha256": "dde5fdb59e635744909c98b80adeca4be15553e2f6a76f8bca37e91f28030830",
        "sha256_in_prefix": "dde5fdb59e635744909c98b80adeca4be15553e2f6a76f8bca37e91f28030830",
        "size_in_bytes": 46172
      },
      {
        "_path": "include/gstreamer-1.0/gst/gstelementfactory.h",
        "path_type": "hardlink",
        "sha256": "805760c4e76b5cbc0699ec1d385cce78f5cf5ba27e62c8427ac04ce507d7e4a2",
        "sha256_in_prefix": "805760c4e76b5cbc0699ec1d385cce78f5cf5ba27e62c8427ac04ce507d7e4a2",
        "size_in_bytes": 11406
      },
      {
        "_path": "include/gstreamer-1.0/gst/gstelementmetadata.h",
        "path_type": "hardlink",
        "sha256": "acad9d53c2214c6a613e51f9cff425251e23f3a949e5147db62bfa7877d2cd4e",
        "sha256_in_prefix": "acad9d53c2214c6a613e51f9cff425251e23f3a949e5147db62bfa7877d2cd4e",
        "size_in_bytes": 2467
      },
      {
        "_path": "include/gstreamer-1.0/gst/gstenumtypes.h",
        "path_type": "hardlink",
        "sha256": "d28024564151875c227e0adee2a01925b979f824af19878036d960445fe7355f",
        "sha256_in_prefix": "d28024564151875c227e0adee2a01925b979f824af19878036d960445fe7355f",
        "size_in_bytes": 10736
      },
      {
        "_path": "include/gstreamer-1.0/gst/gsterror.h",
        "path_type": "hardlink",
        "sha256": "7b61f78f58b40ebb1c18ab2cc31d3c0bd7eefd71965180e944f6378ee3755c44",
        "sha256_in_prefix": "7b61f78f58b40ebb1c18ab2cc31d3c0bd7eefd71965180e944f6378ee3755c44",
        "size_in_bytes": 9679
      },
      {
        "_path": "include/gstreamer-1.0/gst/gstevent.h",
        "path_type": "hardlink",
        "sha256": "ff21ef7167446b25ad6cab53d076077b4fa85e294dd78375aab17f223adceb6a",
        "sha256_in_prefix": "ff21ef7167446b25ad6cab53d076077b4fa85e294dd78375aab17f223adceb6a",
        "size_in_bytes": 26181
      },
      {
        "_path": "include/gstreamer-1.0/gst/gstformat.h",
        "path_type": "hardlink",
        "sha256": "66b33748bbf185c030185b4bd881b07da674d332f61425845648a9a9114c36c9",
        "sha256_in_prefix": "66b33748bbf185c030185b4bd881b07da674d332f61425845648a9a9114c36c9",
        "size_in_bytes": 3670
      },
      {
        "_path": "include/gstreamer-1.0/gst/gstghostpad.h",
        "path_type": "hardlink",
        "sha256": "6c3ddb52b22797f81a8b1d6e7f133eb05950bc2c11f16b190df2bbc97a85a47c",
        "sha256_in_prefix": "6c3ddb52b22797f81a8b1d6e7f133eb05950bc2c11f16b190df2bbc97a85a47c",
        "size_in_bytes": 5268
      },
      {
        "_path": "include/gstreamer-1.0/gst/gstinfo.h",
        "path_type": "hardlink",
        "sha256": "be398562b4e656188b18862c2da6a4e96d7ef94b41db4d679c8468b0b55c805b",
        "sha256_in_prefix": "be398562b4e656188b18862c2da6a4e96d7ef94b41db4d679c8468b0b55c805b",
        "size_in_bytes": 59303
      },
      {
        "_path": "include/gstreamer-1.0/gst/gstiterator.h",
        "path_type": "hardlink",
        "sha256": "ce3c858c4cd9d6a88502a8fe233e2f78286b8b5954623ce8b34c5d04d13bcc43",
        "sha256_in_prefix": "ce3c858c4cd9d6a88502a8fe233e2f78286b8b5954623ce8b34c5d04d13bcc43",
        "size_in_bytes": 10562
      },
      {
        "_path": "include/gstreamer-1.0/gst/gstmacros.h",
        "path_type": "hardlink",
        "sha256": "6e48d48efff001316959cf5fa65b684368dc798928a991f8bd6887fd7013fa7c",
        "sha256_in_prefix": "6e48d48efff001316959cf5fa65b684368dc798928a991f8bd6887fd7013fa7c",
        "size_in_bytes": 1644
      },
      {
        "_path": "include/gstreamer-1.0/gst/gstmemory.h",
        "path_type": "hardlink",
        "sha256": "8328fd6a234bc457ac22627570563375aef6aad53e57942e1ae41abccd4106bf",
        "sha256_in_prefix": "8328fd6a234bc457ac22627570563375aef6aad53e57942e1ae41abccd4106bf",
        "size_in_bytes": 12150
      },
      {
        "_path": "include/gstreamer-1.0/gst/gstmessage.h",
        "path_type": "hardlink",
        "sha256": "c6a236a0314eaddbc5ec8dfdd280378452e8107dcb0ac7b9f85549f9808bd432",
        "sha256_in_prefix": "c6a236a0314eaddbc5ec8dfdd280378452e8107dcb0ac7b9f85549f9808bd432",
        "size_in_bytes": 31348
      },
      {
        "_path": "include/gstreamer-1.0/gst/gstmeta.h",
        "path_type": "hardlink",
        "sha256": "046a48d5402be3e421c5ee2ab230a027d0abf63cca0ba68f684081485c9376a9",
        "sha256_in_prefix": "046a48d5402be3e421c5ee2ab230a027d0abf63cca0ba68f684081485c9376a9",
        "size_in_bytes": 7039
      },
      {
        "_path": "include/gstreamer-1.0/gst/gstminiobject.h",
        "path_type": "hardlink",
        "sha256": "1cedf951b7511bbbd72da2c2b41c56dbbb40d8a9c64679fe7bfee95f43204661",
        "sha256_in_prefix": "1cedf951b7511bbbd72da2c2b41c56dbbb40d8a9c64679fe7bfee95f43204661",
        "size_in_bytes": 9584
      },
      {
        "_path": "include/gstreamer-1.0/gst/gstobject.h",
        "path_type": "hardlink",
        "sha256": "ed70a830050f8addfd16f807eac4e177f3050ee4e9bcae940f756bcc0441f355",
        "sha256_in_prefix": "ed70a830050f8addfd16f807eac4e177f3050ee4e9bcae940f756bcc0441f355",
        "size_in_bytes": 10017
      },
      {
        "_path": "include/gstreamer-1.0/gst/gstpad.h",
        "path_type": "hardlink",
        "sha256": "6592caa72e0f58f3b18c6387016fb7ecf88dc714ec6ebf488a2590f2965afd3b",
        "sha256_in_prefix": "6592caa72e0f58f3b18c6387016fb7ecf88dc714ec6ebf488a2590f2965afd3b",
        "size_in_bytes": 58228
      },
      {
        "_path": "include/gstreamer-1.0/gst/gstpadtemplate.h",
        "path_type": "hardlink",
        "sha256": "9b94fe23ecc51cefd7fcd4865ded9512de0e9db1faccccf2192b9ca4291897a6",
        "sha256_in_prefix": "9b94fe23ecc51cefd7fcd4865ded9512de0e9db1faccccf2192b9ca4291897a6",
        "size_in_bytes": 6488
      },
      {
        "_path": "include/gstreamer-1.0/gst/gstparamspecs.h",
        "path_type": "hardlink",
        "sha256": "9b35911ff7850fd32aa044e6f5db1f2610354859af1a0c49de6596d67a4a74e7",
        "sha256_in_prefix": "9b35911ff7850fd32aa044e6f5db1f2610354859af1a0c49de6596d67a4a74e7",
        "size_in_bytes": 4915
      },
      {
        "_path": "include/gstreamer-1.0/gst/gstparse.h",
        "path_type": "hardlink",
        "sha256": "9ab6c2b82e07271cb56645938636d4c9ed6cfc343e3e831efb001ad6d41b21ec",
        "sha256_in_prefix": "9ab6c2b82e07271cb56645938636d4c9ed6cfc343e3e831efb001ad6d41b21ec",
        "size_in_bytes": 4751
      },
      {
        "_path": "include/gstreamer-1.0/gst/gstpipeline.h",
        "path_type": "hardlink",
        "sha256": "26446b101a9ca1f9e87f77d51f8b12a5410119444d09da1ee71804bdc5891a3b",
        "sha256_in_prefix": "26446b101a9ca1f9e87f77d51f8b12a5410119444d09da1ee71804bdc5891a3b",
        "size_in_bytes": 4509
      },
      {
        "_path": "include/gstreamer-1.0/gst/gstplugin.h",
        "path_type": "hardlink",
        "sha256": "5a334bb1510b21554895a24a73a07304acab0ccad48a93abe48ee59dfa957b5f",
        "sha256_in_prefix": "5a334bb1510b21554895a24a73a07304acab0ccad48a93abe48ee59dfa957b5f",
        "size_in_bytes": 14737
      },
      {
        "_path": "include/gstreamer-1.0/gst/gstpluginfeature.h",
        "path_type": "hardlink",
        "sha256": "7a9e1826f901c788648c8804eb603c9815f627f43ae99acf4b7fc99c1cf6e1db",
        "sha256_in_prefix": "7a9e1826f901c788648c8804eb603c9815f627f43ae99acf4b7fc99c1cf6e1db",
        "size_in_bytes": 5882
      },
      {
        "_path": "include/gstreamer-1.0/gst/gstpoll.h",
        "path_type": "hardlink",
        "sha256": "357c1edf4107b5a72b00a412aeee12759fafb795f39cb5ce97d536869b82d1bc",
        "sha256_in_prefix": "357c1edf4107b5a72b00a412aeee12759fafb795f39cb5ce97d536869b82d1bc",
        "size_in_bytes": 3352
      },
      {
        "_path": "include/gstreamer-1.0/gst/gstpreset.h",
        "path_type": "hardlink",
        "sha256": "78e4e6ca2c424747b290ea00b60a7c1667ab8669961c119b17219b0b37dd7049",
        "sha256_in_prefix": "78e4e6ca2c424747b290ea00b60a7c1667ab8669961c119b17219b0b37dd7049",
        "size_in_bytes": 4347
      },
      {
        "_path": "include/gstreamer-1.0/gst/gstpromise.h",
        "path_type": "hardlink",
        "sha256": "af7ce73350b86f7818b0343a992d2a3373f1aec3a5a60361b19405424ace81f1",
        "sha256_in_prefix": "af7ce73350b86f7818b0343a992d2a3373f1aec3a5a60361b19405424ace81f1",
        "size_in_bytes": 3641
      },
      {
        "_path": "include/gstreamer-1.0/gst/gstprotection.h",
        "path_type": "hardlink",
        "sha256": "b65d153f438dea5764c9eec80c57700e483aa378913295d90e160a16790a999c",
        "sha256_in_prefix": "b65d153f438dea5764c9eec80c57700e483aa378913295d90e160a16790a999c",
        "size_in_bytes": 2359
      },
      {
        "_path": "include/gstreamer-1.0/gst/gstquery.h",
        "path_type": "hardlink",
        "sha256": "41b20a6fc54f35c1903a93a0ab08a469390cc64300a184a01909fa9514c7f0cb",
        "sha256_in_prefix": "41b20a6fc54f35c1903a93a0ab08a469390cc64300a184a01909fa9514c7f0cb",
        "size_in_bytes": 22160
      },
      {
        "_path": "include/gstreamer-1.0/gst/gstregistry.h",
        "path_type": "hardlink",
        "sha256": "6d582d4d16822e4cbbb4ee362452e20655fc666feb9089a531791ad93cc352ad",
        "sha256_in_prefix": "6d582d4d16822e4cbbb4ee362452e20655fc666feb9089a531791ad93cc352ad",
        "size_in_bytes": 5117
      },
      {
        "_path": "include/gstreamer-1.0/gst/gstsample.h",
        "path_type": "hardlink",
        "sha256": "82e7aed388fbb7caebfd9455803cbbcf070af1ba73d721cf8a9c89dff483fe80",
        "sha256_in_prefix": "82e7aed388fbb7caebfd9455803cbbcf070af1ba73d721cf8a9c89dff483fe80",
        "size_in_bytes": 4589
      },
      {
        "_path": "include/gstreamer-1.0/gst/gstsegment.h",
        "path_type": "hardlink",
        "sha256": "5f7234ba6c7ba651208976e89769d6e87a7b08a7beb8430c369434a9bb92d947",
        "sha256_in_prefix": "5f7234ba6c7ba651208976e89769d6e87a7b08a7beb8430c369434a9bb92d947",
        "size_in_bytes": 12253
      },
      {
        "_path": "include/gstreamer-1.0/gst/gststreamcollection.h",
        "path_type": "hardlink",
        "sha256": "faa4dc7ba5d42a60d864f4503c89a8427087988647b814fc5add7cb78c577101",
        "sha256_in_prefix": "faa4dc7ba5d42a60d864f4503c89a8427087988647b814fc5add7cb78c577101",
        "size_in_bytes": 4343
      },
      {
        "_path": "include/gstreamer-1.0/gst/gststreams.h",
        "path_type": "hardlink",
        "sha256": "6a1118822ff0d1a5060b4167b361cf8346ed4845b47d9307adfb795b3cef4896",
        "sha256_in_prefix": "6a1118822ff0d1a5060b4167b361cf8346ed4845b47d9307adfb795b3cef4896",
        "size_in_bytes": 4923
      },
      {
        "_path": "include/gstreamer-1.0/gst/gststructure.h",
        "path_type": "hardlink",
        "sha256": "0fc38234db4f6d83ece7ed357853abb61d1ec0710224ee1c57751eb58f14fae8",
        "sha256_in_prefix": "0fc38234db4f6d83ece7ed357853abb61d1ec0710224ee1c57751eb58f14fae8",
        "size_in_bytes": 20115
      },
      {
        "_path": "include/gstreamer-1.0/gst/gstsystemclock.h",
        "path_type": "hardlink",
        "sha256": "3bcf8bbcaa9a0872415715fb705403197347fb44490fceafd2886d1910c71e55",
        "sha256_in_prefix": "3bcf8bbcaa9a0872415715fb705403197347fb44490fceafd2886d1910c71e55",
        "size_in_bytes": 3221
      },
      {
        "_path": "include/gstreamer-1.0/gst/gsttaglist.h",
        "path_type": "hardlink",
        "sha256": "30569ba4fa96e012f77bcee5e497bf0465f066f0eac5fa1fe31d9c04c8b9cb15",
        "sha256_in_prefix": "30569ba4fa96e012f77bcee5e497bf0465f066f0eac5fa1fe31d9c04c8b9cb15",
        "size_in_bytes": 37956
      },
      {
        "_path": "include/gstreamer-1.0/gst/gsttagsetter.h",
        "path_type": "hardlink",
        "sha256": "13e3542ca03befb9ea320bd129125da0f2c1b6ec499df555836f593aa808b876",
        "sha256_in_prefix": "13e3542ca03befb9ea320bd129125da0f2c1b6ec499df555836f593aa808b876",
        "size_in_bytes": 4345
      },
      {
        "_path": "include/gstreamer-1.0/gst/gsttask.h",
        "path_type": "hardlink",
        "sha256": "f3b53fa59f1cec155e44d9a03dc7bdff753f61e550f14474a5ae331e4f934785",
        "sha256_in_prefix": "f3b53fa59f1cec155e44d9a03dc7bdff753f61e550f14474a5ae331e4f934785",
        "size_in_bytes": 6221
      },
      {
        "_path": "include/gstreamer-1.0/gst/gsttaskpool.h",
        "path_type": "hardlink",
        "sha256": "15a1afc8bee71351af88f51a8ee0b6ac59bb5ce876f30a3ae413c230c16ed7a8",
        "sha256_in_prefix": "15a1afc8bee71351af88f51a8ee0b6ac59bb5ce876f30a3ae413c230c16ed7a8",
        "size_in_bytes": 3511
      },
      {
        "_path": "include/gstreamer-1.0/gst/gsttoc.h",
        "path_type": "hardlink",
        "sha256": "754689d10e2605760ddc0c84f263e1dbae71c8f8e570560ff723ba383deb51a7",
        "sha256_in_prefix": "754689d10e2605760ddc0c84f263e1dbae71c8f8e570560ff723ba383deb51a7",
        "size_in_bytes": 8211
      },
      {
        "_path": "include/gstreamer-1.0/gst/gsttocsetter.h",
        "path_type": "hardlink",
        "sha256": "70bef7cbe4f5273d1487e90f3e306845316988445ae2255db0842b7a7f492331",
        "sha256_in_prefix": "70bef7cbe4f5273d1487e90f3e306845316988445ae2255db0842b7a7f492331",
        "size_in_bytes": 2085
      },
      {
        "_path": "include/gstreamer-1.0/gst/gsttracer.h",
        "path_type": "hardlink",
        "sha256": "b9cc58382a46d0594ff889e6e06cf80f5b909ba69bd1441484b969e22d48d12a",
        "sha256_in_prefix": "b9cc58382a46d0594ff889e6e06cf80f5b909ba69bd1441484b969e22d48d12a",
        "size_in_bytes": 2449
      },
      {
        "_path": "include/gstreamer-1.0/gst/gsttracerfactory.h",
        "path_type": "hardlink",
        "sha256": "870240deb764a3849ff29de3b1925b2bde10f39629fd0c79a7304cbb60fa0f24",
        "sha256_in_prefix": "870240deb764a3849ff29de3b1925b2bde10f39629fd0c79a7304cbb60fa0f24",
        "size_in_bytes": 2450
      },
      {
        "_path": "include/gstreamer-1.0/gst/gsttracerrecord.h",
        "path_type": "hardlink",
        "sha256": "62868aa49f7f79ca64fd2a60150531b40fc0ccd265866b0e2310816690e3b090",
        "sha256_in_prefix": "62868aa49f7f79ca64fd2a60150531b40fc0ccd265866b0e2310816690e3b090",
        "size_in_bytes": 3902
      },
      {
        "_path": "include/gstreamer-1.0/gst/gsttypefind.h",
        "path_type": "hardlink",
        "sha256": "c0ea8978f0fe5381fb44e723eb2af80ea8274eb6ce72e9183109741a53cb7b6d",
        "sha256_in_prefix": "c0ea8978f0fe5381fb44e723eb2af80ea8274eb6ce72e9183109741a53cb7b6d",
        "size_in_bytes": 4483
      },
      {
        "_path": "include/gstreamer-1.0/gst/gsttypefindfactory.h",
        "path_type": "hardlink",
        "sha256": "a0f3bc22873080187fec3ac47348963f8a72dfae5f6d379bf9bda796d631aaf5",
        "sha256_in_prefix": "a0f3bc22873080187fec3ac47348963f8a72dfae5f6d379bf9bda796d631aaf5",
        "size_in_bytes": 2846
      },
      {
        "_path": "include/gstreamer-1.0/gst/gsturi.h",
        "path_type": "hardlink",
        "sha256": "79885d6815f04618ffe2cb9c7503c20af9993076acbc296f8461ac3a6b5dd8be",
        "sha256_in_prefix": "79885d6815f04618ffe2cb9c7503c20af9993076acbc296f8461ac3a6b5dd8be",
        "size_in_bytes": 12545
      },
      {
        "_path": "include/gstreamer-1.0/gst/gstutils.h",
        "path_type": "hardlink",
        "sha256": "dba057872179a41b892111316b1ac7d2e8b1c33f456d1899659d9a70653848cb",
        "sha256_in_prefix": "dba057872179a41b892111316b1ac7d2e8b1c33f456d1899659d9a70653848cb",
        "size_in_bytes": 39502
      },
      {
        "_path": "include/gstreamer-1.0/gst/gstvalue.h",
        "path_type": "hardlink",
        "sha256": "a2fdc119c665ef204e9bd192cbf3dcb7fbeeaf7499077d6a3dc58ff9e9856c89",
        "sha256_in_prefix": "a2fdc119c665ef204e9bd192cbf3dcb7fbeeaf7499077d6a3dc58ff9e9856c89",
        "size_in_bytes": 22002
      },
      {
        "_path": "include/gstreamer-1.0/gst/gstversion.h",
        "path_type": "hardlink",
        "sha256": "405e5b03cae4fc617da7d03fd0d73fd5f110fbb0ca5967eb768913dbb85cb441",
        "sha256_in_prefix": "405e5b03cae4fc617da7d03fd0d73fd5f110fbb0ca5967eb768913dbb85cb441",
        "size_in_bytes": 2864
      },
      {
        "_path": "include/gstreamer-1.0/gst/math-compat.h",
        "path_type": "hardlink",
        "sha256": "7b323d2aea640d2127511967a8be0e76e7ffae38a2a96dfbbec342696f4a613b",
        "sha256_in_prefix": "7b323d2aea640d2127511967a8be0e76e7ffae38a2a96dfbbec342696f4a613b",
        "size_in_bytes": 2769
      },
      {
        "_path": "include/gstreamer-1.0/gst/net/gstnet.h",
        "path_type": "hardlink",
        "sha256": "90d4008d38f9f4d11defbe31a07fd34d0e4c279bcb120e9d67036a9731cca3ad",
        "sha256_in_prefix": "90d4008d38f9f4d11defbe31a07fd34d0e4c279bcb120e9d67036a9731cca3ad",
        "size_in_bytes": 1077
      },
      {
        "_path": "include/gstreamer-1.0/gst/net/gstnetaddressmeta.h",
        "path_type": "hardlink",
        "sha256": "9698ebcf86aa1cf0ad1f3a6f4ae945f640e8094aee4adb454db10ef1d1fa754a",
        "sha256_in_prefix": "9698ebcf86aa1cf0ad1f3a6f4ae945f640e8094aee4adb454db10ef1d1fa754a",
        "size_in_bytes": 1872
      },
      {
        "_path": "include/gstreamer-1.0/gst/net/gstnetclientclock.h",
        "path_type": "hardlink",
        "sha256": "698411159f1b93ff7caa4bd0565e3bd67b81c134d3e61d16e8f3fdae82803f88",
        "sha256_in_prefix": "698411159f1b93ff7caa4bd0565e3bd67b81c134d3e61d16e8f3fdae82803f88",
        "size_in_bytes": 3688
      },
      {
        "_path": "include/gstreamer-1.0/gst/net/gstnetcontrolmessagemeta.h",
        "path_type": "hardlink",
        "sha256": "a91eeb0fdbaa15c01759ac02fcf7d73614bd0f6ae72a57b48d203cf8dab722ea",
        "sha256_in_prefix": "a91eeb0fdbaa15c01759ac02fcf7d73614bd0f6ae72a57b48d203cf8dab722ea",
        "size_in_bytes": 2181
      },
      {
        "_path": "include/gstreamer-1.0/gst/net/gstnettimepacket.h",
        "path_type": "hardlink",
        "sha256": "629de66e37381c46f8ff8becfaa6ba698e3eef82da4f3ad78e83cb0d93e45ab7",
        "sha256_in_prefix": "629de66e37381c46f8ff8becfaa6ba698e3eef82da4f3ad78e83cb0d93e45ab7",
        "size_in_bytes": 2698
      },
      {
        "_path": "include/gstreamer-1.0/gst/net/gstnettimeprovider.h",
        "path_type": "hardlink",
        "sha256": "14b2bb1c3bd1b4ff235235418de30a1356ccb6361148b8de380637632a65731c",
        "sha256_in_prefix": "14b2bb1c3bd1b4ff235235418de30a1356ccb6361148b8de380637632a65731c",
        "size_in_bytes": 2632
      },
      {
        "_path": "include/gstreamer-1.0/gst/net/gstptpclock.h",
        "path_type": "hardlink",
        "sha256": "82e4c7e1f1e20c1d41aac17e4d7ea2adc3ff64a500e61ed9681f005ad5c40198",
        "sha256_in_prefix": "82e4c7e1f1e20c1d41aac17e4d7ea2adc3ff64a500e61ed9681f005ad5c40198",
        "size_in_bytes": 6382
      },
      {
        "_path": "include/gstreamer-1.0/gst/net/net-prelude.h",
        "path_type": "hardlink",
        "sha256": "533e4c366c02354f2a69f56e3ec68b0a4a44097ee72aebdafb80505ca7c578a0",
        "sha256_in_prefix": "533e4c366c02354f2a69f56e3ec68b0a4a44097ee72aebdafb80505ca7c578a0",
        "size_in_bytes": 1058
      },
      {
        "_path": "include/gstreamer-1.0/gst/net/net.h",
        "path_type": "hardlink",
        "sha256": "d6846e292447673061567cbeba5b9f1047470f754639d758c6cfd752d6f472aa",
        "sha256_in_prefix": "d6846e292447673061567cbeba5b9f1047470f754639d758c6cfd752d6f472aa",
        "size_in_bytes": 1187
      },
      {
        "_path": "lib/gstreamer-1.0/libgstcoreelements.la",
        "file_mode": "text",
        "path_type": "hardlink",
        "prefix_placeholder": "/opt/anaconda1anaconda2anaconda3",
        "sha256": "7ac3d8a55a31f077dafc30327df788816d787116bee7e65e3a6fcaa113577d63",
        "sha256_in_prefix": "d5861c71f4c534a08a7470e63ecddafd32d98866ce9f7035d91a8d57574d03d3",
        "size_in_bytes": 1456
      },
      {
        "_path": "lib/gstreamer-1.0/libgstcoreelements.so",
        "path_type": "hardlink",
        "sha256": "4fdf2e8927a6d964353631c3e3e25f2bd956d8cd4e12a53e00c5aa07cb4deb0c",
        "sha256_in_prefix": "4fdf2e8927a6d964353631c3e3e25f2bd956d8cd4e12a53e00c5aa07cb4deb0c",
        "size_in_bytes": 1657992
      },
      {
        "_path": "lib/gstreamer-1.0/libgstcoretracers.la",
        "file_mode": "text",
        "path_type": "hardlink",
        "prefix_placeholder": "/opt/anaconda1anaconda2anaconda3",
        "sha256": "c41da2ac1e19bf6468d38521279f0d49bae176ecaaa2063f1f1fcfab109722f9",
        "sha256_in_prefix": "8ad2d10544776c0402830a28440ba796513d23b52dd4df2be9cd0e0f02861813",
        "size_in_bytes": 1395
      },
      {
        "_path": "lib/gstreamer-1.0/libgstcoretracers.so",
        "path_type": "hardlink",
        "sha256": "46c0165e8586b8a68f26e53d5142eb711680f4e4a0d45e2eca1e63b7b32e44ea",
        "sha256_in_prefix": "46c0165e8586b8a68f26e53d5142eb711680f4e4a0d45e2eca1e63b7b32e44ea",
        "size_in_bytes": 307448
      },
      {
        "_path": "lib/libgstbase-1.0.la",
        "file_mode": "text",
        "path_type": "hardlink",
        "prefix_placeholder": "/opt/anaconda1anaconda2anaconda3",
        "sha256": "db1f528892571afd6df9c4d6b376990c16dca665e357b102f033db9290787afe",
        "sha256_in_prefix": "7f20934b5bde018fe5d2a30e1b0f6d9a82c2b1067c9dbedc2017be50e6541c46",
        "size_in_bytes": 1381
      },
      {
        "_path": "lib/libgstbase-1.0.so",
        "path_type": "softlink",
        "sha256": "50b2bce6583481687fc05ac0dcc77d5b35c147f00d20b58bb939d9fe5a8c097d",
        "size_in_bytes": 1913104
      },
      {
        "_path": "lib/libgstbase-1.0.so.0",
        "path_type": "softlink",
        "sha256": "50b2bce6583481687fc05ac0dcc77d5b35c147f00d20b58bb939d9fe5a8c097d",
        "size_in_bytes": 1913104
      },
      {
        "_path": "lib/libgstbase-1.0.so.0.1400.0",
        "path_type": "hardlink",
        "sha256": "50b2bce6583481687fc05ac0dcc77d5b35c147f00d20b58bb939d9fe5a8c097d",
        "sha256_in_prefix": "50b2bce6583481687fc05ac0dcc77d5b35c147f00d20b58bb939d9fe5a8c097d",
        "size_in_bytes": 1913104
      },
      {
        "_path": "lib/libgstcheck-1.0.la",
        "file_mode": "text",
        "path_type": "hardlink",
        "prefix_placeholder": "/opt/anaconda1anaconda2anaconda3",
        "sha256": "84cc39b7a87fb52244b528af2e289fb354d82a07eaeb98d070f7ff3143674334",
        "sha256_in_prefix": "929982e9e1dc04c7fc284c6ebeadd3e729fd63e3f5b38bef2be60a8a1680c569",
        "size_in_bytes": 1387
      },
      {
        "_path": "lib/libgstcheck-1.0.so",
        "path_type": "softlink",
        "sha256": "cfc49a21ea2ae9d36447f3217f2586f808919cdacba8d443fe21b6df2fb38a49",
        "size_in_bytes": 434976
      },
      {
        "_path": "lib/libgstcheck-1.0.so.0",
        "path_type": "softlink",
        "sha256": "cfc49a21ea2ae9d36447f3217f2586f808919cdacba8d443fe21b6df2fb38a49",
        "size_in_bytes": 434976
      },
      {
        "_path": "lib/libgstcheck-1.0.so.0.1400.0",
        "path_type": "hardlink",
        "sha256": "cfc49a21ea2ae9d36447f3217f2586f808919cdacba8d443fe21b6df2fb38a49",
        "sha256_in_prefix": "cfc49a21ea2ae9d36447f3217f2586f808919cdacba8d443fe21b6df2fb38a49",
        "size_in_bytes": 434976
      },
      {
        "_path": "lib/libgstcontroller-1.0.la",
        "file_mode": "text",
        "path_type": "hardlink",
        "prefix_placeholder": "/opt/anaconda1anaconda2anaconda3",
        "sha256": "6dc3a91a634a49e124b14ff45ec4ed8cc8b4066df5d1e964390329bdc552fe80",
        "sha256_in_prefix": "bc947b663b070e121ae9e4bc4b411c00db8a570582185afaf807f13b96da0fe4",
        "size_in_bytes": 1417
      },
      {
        "_path": "lib/libgstcontroller-1.0.so",
        "path_type": "softlink",
        "sha256": "473827856fd1b6dceb84c7fa081b6c9da10e5c3703acee15aef7ef85d3fb3a20",
        "size_in_bytes": 324520
      },
      {
        "_path": "lib/libgstcontroller-1.0.so.0",
        "path_type": "softlink",
        "sha256": "473827856fd1b6dceb84c7fa081b6c9da10e5c3703acee15aef7ef85d3fb3a20",
        "size_in_bytes": 324520
      },
      {
        "_path": "lib/libgstcontroller-1.0.so.0.1400.0",
        "path_type": "hardlink",
        "sha256": "473827856fd1b6dceb84c7fa081b6c9da10e5c3703acee15aef7ef85d3fb3a20",
        "sha256_in_prefix": "473827856fd1b6dceb84c7fa081b6c9da10e5c3703acee15aef7ef85d3fb3a20",
        "size_in_bytes": 324520
      },
      {
        "_path": "lib/libgstnet-1.0.la",
        "file_mode": "text",
        "path_type": "hardlink",
        "prefix_placeholder": "/opt/anaconda1anaconda2anaconda3",
        "sha256": "3cfd229c80e7a33f8a49d71bc2ee9306ab03ac1858064f5fe611f1ec140d9764",
        "sha256_in_prefix": "d6b3f620fc7f0242c93afd2869522f3a415432b105876e453a77afcdb7a92360",
        "size_in_bytes": 1494
      },
      {
        "_path": "lib/libgstnet-1.0.so",
        "path_type": "softlink",
        "sha256": "a7343a0d927afefb0f487b1d9c9b223177111576764af00387368a51f7d94c64",
        "size_in_bytes": 373872
      },
      {
        "_path": "lib/libgstnet-1.0.so.0",
        "path_type": "softlink",
        "sha256": "a7343a0d927afefb0f487b1d9c9b223177111576764af00387368a51f7d94c64",
        "size_in_bytes": 373872
      },
      {
        "_path": "lib/libgstnet-1.0.so.0.1400.0",
        "file_mode": "binary",
        "path_type": "hardlink",
        "prefix_placeholder": "/tmp/build/80754af9/gstreamer_and_plugins_1522700734156/_h_env_placehold_placehold_placehold_placehold_placehold_placehold_placehold_placehold_placehold_placehold_placehold_placehold_placehold_placehold_placehold_placehold_placehold_placehold_placehold_pl",
        "sha256": "a7343a0d927afefb0f487b1d9c9b223177111576764af00387368a51f7d94c64",
        "sha256_in_prefix": "4c54535ad96db2df988761013355ac35c99782ecffa858691e9a7735d6cb62ba",
        "size_in_bytes": 373872
      },
      {
        "_path": "lib/libgstreamer-1.0.la",
        "file_mode": "text",
        "path_type": "hardlink",
        "prefix_placeholder": "/opt/anaconda1anaconda2anaconda3",
        "sha256": "2a49994fe4eb0e99ae3ebf4944449b752992a998f34660cad188472644f12513",
        "sha256_in_prefix": "577af02a526a1f1ec9a93c78afd7ba4408603d00d3861e5a41509c9baf5a1764",
        "size_in_bytes": 1336
      },
      {
        "_path": "lib/libgstreamer-1.0.so",
        "path_type": "softlink",
        "sha256": "a7beae51f20d12350dbc214db2c18c1619de89c01fcd3aae9cdae2354a37e9b9",
        "size_in_bytes": 5413520
      },
      {
        "_path": "lib/libgstreamer-1.0.so.0",
        "path_type": "softlink",
        "sha256": "a7beae51f20d12350dbc214db2c18c1619de89c01fcd3aae9cdae2354a37e9b9",
        "size_in_bytes": 5413520
      },
      {
        "_path": "lib/libgstreamer-1.0.so.0.1400.0",
        "file_mode": "binary",
        "path_type": "hardlink",
        "prefix_placeholder": "/tmp/build/80754af9/gstreamer_and_plugins_1522700734156/_h_env_placehold_placehold_placehold_placehold_placehold_placehold_placehold_placehold_placehold_placehold_placehold_placehold_placehold_placehold_placehold_placehold_placehold_placehold_placehold_pl",
        "sha256": "a7beae51f20d12350dbc214db2c18c1619de89c01fcd3aae9cdae2354a37e9b9",
        "sha256_in_prefix": "df41121e51632f2689f2dbf1434ecfb7d78017bafa5f77e2f23160e52402ffd4",
        "size_in_bytes": 5413520
      },
      {
        "_path": "lib/pkgconfig/gstreamer-1.0.pc",
        "file_mode": "text",
        "path_type": "hardlink",
        "prefix_placeholder": "/opt/anaconda1anaconda2anaconda3",
        "sha256": "ddd5244f58c86b78e4f88146b1408515fc45b4f808290fd3744b9b0519981873",
        "sha256_in_prefix": "f36f3779ee420180a2a1a822176e49e6373c7c442523fa7e9169069493e45b94",
        "size_in_bytes": 522
      },
      {
        "_path": "lib/pkgconfig/gstreamer-base-1.0.pc",
        "file_mode": "text",
        "path_type": "hardlink",
        "prefix_placeholder": "/opt/anaconda1anaconda2anaconda3",
        "sha256": "554917eee7327f52354639a1da115344d7b121869517948c18a37fbafc8923d6",
        "sha256_in_prefix": "e40f63e6e16bec6310c7ea6296b705459ec92feedf7fa3a1d984113af9aa7c90",
        "size_in_bytes": 421
      },
      {
        "_path": "lib/pkgconfig/gstreamer-check-1.0.pc",
        "file_mode": "text",
        "path_type": "hardlink",
        "prefix_placeholder": "/opt/anaconda1anaconda2anaconda3",
        "sha256": "ca359329fe890970c4220d8f5dd6f201ee3abfa8bb8b6da3ec4e96114ed6fa5e",
        "sha256_in_prefix": "b02f537f6a0fa9a5a9d71b2ab22c7fbeff3a58ee4fc775a17beaf407a509c39f",
        "size_in_bytes": 446
      },
      {
        "_path": "lib/pkgconfig/gstreamer-controller-1.0.pc",
        "file_mode": "text",
        "path_type": "hardlink",
        "prefix_placeholder": "/opt/anaconda1anaconda2anaconda3",
        "sha256": "c9088b49d747ae9f4eeffe74c2bfc1edea69305a0845ad8658c56fb3d198ee26",
        "sha256_in_prefix": "0f6ccca84adca32310731a1008de5ed3abd4dd8837cc551673fbf5d59f11a5ec",
        "size_in_bytes": 438
      },
      {
        "_path": "lib/pkgconfig/gstreamer-net-1.0.pc",
        "file_mode": "text",
        "path_type": "hardlink",
        "prefix_placeholder": "/opt/anaconda1anaconda2anaconda3",
        "sha256": "d44530eaaa39b31ab599a8fc00b8c65142b58650527f5bc33d2de41ed8250a7f",
        "sha256_in_prefix": "90da1e64bda323069661b53c20a6b7b6b88e0e8f31d1bf3912a7f2ee6e641b0e",
        "size_in_bytes": 446
      },
      {
        "_path": "libexec/gstreamer-1.0/gst-completion-helper",
        "path_type": "hardlink",
        "sha256": "280477968fec3b7105190e6cd69d6c5434240d05042aee911f9e6c78a4770b0d",
        "sha256_in_prefix": "280477968fec3b7105190e6cd69d6c5434240d05042aee911f9e6c78a4770b0d",
        "size_in_bytes": 37120
      },
      {
        "_path": "libexec/gstreamer-1.0/gst-plugin-scanner",
        "path_type": "hardlink",
        "sha256": "d5abb56376ce442869e4dbbd04aa2e0fcbc1641f7531d5e7b46ea8b505c9e4ce",
        "sha256_in_prefix": "d5abb56376ce442869e4dbbd04aa2e0fcbc1641f7531d5e7b46ea8b505c9e4ce",
        "size_in_bytes": 21944
      },
      {
        "_path": "libexec/gstreamer-1.0/gst-ptp-helper",
        "path_type": "hardlink",
        "sha256": "9368164072c1818fbbfea17d3d9e0a96b9e707febb2fc4725d726a89b9a46210",
        "sha256_in_prefix": "9368164072c1818fbbfea17d3d9e0a96b9e707febb2fc4725d726a89b9a46210",
        "size_in_bytes": 56448
      }
    ],
    "paths_version": 1
  },
  "requested_spec": "None",
  "sha256": "456656a51abe93c9e8c2ae2add1980cb43b0395374858c7e3c70ee0e01d92481",
  "size": 3209290,
  "subdir": "linux-64",
  "timestamp": 1522700842442,
  "track_features": "",
  "url": "https://repo.anaconda.com/pkgs/main/linux-64/gstreamer-1.14.0-hb31296c_0.conda",
  "version": "1.14.0"
}