{
  "build": "he6710b0_3",
  "build_number": 3,
  "channel": "https://repo.anaconda.com/pkgs/main/linux-64",
  "constrains": [],
  "depends": [
    "libgcc-ng >=7.3.0",
    "libstdcxx-ng >=7.3.0"
  ],
  "extracted_package_dir": "/home/student2/PycharmProjects/masterproject/relook/jsk_apc/demos/instance_occlsegm/.anaconda3/pkgs/icu-58.2-he6710b0_3",
  "features": "",
  "files": [
    "bin/derb",
    "bin/genbrk",
    "bin/gencfu",
    "bin/gencnval",
    "bin/gendict",
    "bin/genrb",
    "bin/icu-config",
    "bin/icuinfo",
    "bin/makeconv",
    "bin/pkgdata",
    "include/unicode/alphaindex.h",
    "include/unicode/appendable.h",
    "include/unicode/basictz.h",
    "include/unicode/brkiter.h",
    "include/unicode/bytestream.h",
    "include/unicode/bytestrie.h",
    "include/unicode/bytestriebuilder.h",
    "include/unicode/calendar.h",
    "include/unicode/caniter.h",
    "include/unicode/chariter.h",
    "include/unicode/choicfmt.h",
    "include/unicode/coleitr.h",
    "include/unicode/coll.h",
    "include/unicode/compactdecimalformat.h",
    "include/unicode/curramt.h",
    "include/unicode/currpinf.h",
    "include/unicode/currunit.h",
    "include/unicode/datefmt.h",
    "include/unicode/dbbi.h",
    "include/unicode/dcfmtsym.h",
    "include/unicode/decimfmt.h",
    "include/unicode/docmain.h",
    "include/unicode/dtfmtsym.h",
    "include/unicode/dtintrv.h",
    "include/unicode/dtitvfmt.h",
    "include/unicode/dtitvinf.h",
    "include/unicode/dtptngen.h",
    "include/unicode/dtrule.h",
    "include/unicode/enumset.h",
    "include/unicode/errorcode.h",
    "include/unicode/fieldpos.h",
    "include/unicode/filteredbrk.h",
    "include/unicode/fmtable.h",
    "include/unicode/format.h",
    "include/unicode/fpositer.h",
    "include/unicode/gender.h",
    "include/unicode/gregocal.h",
    "include/unicode/icudataver.h",
    "include/unicode/icuplug.h",
    "include/unicode/idna.h",
    "include/unicode/listformatter.h",
    "include/unicode/localpointer.h",
    "include/unicode/locdspnm.h",
    "include/unicode/locid.h",
    "include/unicode/measfmt.h",
    "include/unicode/measunit.h",
    "include/unicode/measure.h",
    "include/unicode/messagepattern.h",
    "include/unicode/msgfmt.h",
    "include/unicode/normalizer2.h",
    "include/unicode/normlzr.h",
    "include/unicode/numfmt.h",
    "include/unicode/numsys.h",
    "include/unicode/parseerr.h",
    "include/unicode/parsepos.h",
    "include/unicode/platform.h",
    "include/unicode/plurfmt.h",
    "include/unicode/plurrule.h",
    "include/unicode/ptypes.h",
    "include/unicode/putil.h",
    "include/unicode/rbbi.h",
    "include/unicode/rbnf.h",
    "include/unicode/rbtz.h",
    "include/unicode/regex.h",
    "include/unicode/region.h",
    "include/unicode/reldatefmt.h",
    "include/unicode/rep.h",
    "include/unicode/resbund.h",
    "include/unicode/schriter.h",
    "include/unicode/scientificnumberformatter.h",
    "include/unicode/search.h",
    "include/unicode/selfmt.h",
    "include/unicode/simpleformatter.h",
    "include/unicode/simpletz.h",
    "include/unicode/smpdtfmt.h",
    "include/unicode/sortkey.h",
    "include/unicode/std_string.h",
    "include/unicode/strenum.h",
    "include/unicode/stringpiece.h",
    "include/unicode/stringtriebuilder.h",
    "include/unicode/stsearch.h",
    "include/unicode/symtable.h",
    "include/unicode/tblcoll.h",
    "include/unicode/timezone.h",
    "include/unicode/tmunit.h",
    "include/unicode/tmutamt.h",
    "include/unicode/tmutfmt.h",
    "include/unicode/translit.h",
    "include/unicode/tzfmt.h",
    "include/unicode/tznames.h",
    "include/unicode/tzrule.h",
    "include/unicode/tztrans.h",
    "include/unicode/ubidi.h",
    "include/unicode/ubiditransform.h",
    "include/unicode/ubrk.h",
    "include/unicode/ucal.h",
    "include/unicode/ucasemap.h",
    "include/unicode/ucat.h",
    "include/unicode/uchar.h",
    "include/unicode/ucharstrie.h",
    "include/unicode/ucharstriebuilder.h",
    "include/unicode/uchriter.h",
    "include/unicode/uclean.h",
    "include/unicode/ucnv.h",
    "include/unicode/ucnv_cb.h",
    "include/unicode/ucnv_err.h",
    "include/unicode/ucnvsel.h",
    "include/unicode/ucol.h",
    "include/unicode/ucoleitr.h",
    "include/unicode/uconfig.h",
    "include/unicode/ucsdet.h",
    "include/unicode/ucurr.h",
    "include/unicode/udat.h",
    "include/unicode/udata.h",
    "include/unicode/udateintervalformat.h",
    "include/unicode/udatpg.h",
    "include/unicode/udisplaycontext.h",
    "include/unicode/uenum.h",
    "include/unicode/ufieldpositer.h",
    "include/unicode/uformattable.h",
    "include/unicode/ugender.h",
    "include/unicode/uidna.h",
    "include/unicode/uiter.h",
    "include/unicode/uldnames.h",
    "include/unicode/ulistformatter.h",
    "include/unicode/uloc.h",
    "include/unicode/ulocdata.h",
    "include/unicode/umachine.h",
    "include/unicode/umisc.h",
    "include/unicode/umsg.h",
    "include/unicode/unifilt.h",
    "include/unicode/unifunct.h",
    "include/unicode/unimatch.h",
    "include/unicode/unirepl.h",
    "include/unicode/uniset.h",
    "include/unicode/unistr.h",
    "include/unicode/unorm.h",
    "include/unicode/unorm2.h",
    "include/unicode/unum.h",
    "include/unicode/unumsys.h",
    "include/unicode/uobject.h",
    "include/unicode/upluralrules.h",
    "include/unicode/uregex.h",
    "include/unicode/uregion.h",
    "include/unicode/ureldatefmt.h",
    "include/unicode/urename.h",
    "include/unicode/urep.h",
    "include/unicode/ures.h",
    "include/unicode/uscript.h",
    "include/unicode/usearch.h",
    "include/unicode/uset.h",
    "include/unicode/usetiter.h",
    "include/unicode/ushape.h",
    "include/unicode/uspoof.h",
    "include/unicode/usprep.h",
    "include/unicode/ustdio.h",
    "include/unicode/ustream.h",
    "include/unicode/ustring.h",
    "include/unicode/ustringtrie.h",
    "include/unicode/utext.h",
    "include/unicode/utf.h",
    "include/unicode/utf16.h",
    "include/unicode/utf32.h",
    "include/unicode/utf8.h",
    "include/unicode/utf_old.h",
    "include/unicode/utmscale.h",
    "include/unicode/utrace.h",
    "include/unicode/utrans.h",
    "include/unicode/utypes.h",
    "include/unicode/uvernum.h",
    "include/unicode/uversion.h",
    "include/unicode/vtzone.h",
    "lib/icu/58.2/Makefile.inc",
    "lib/icu/58.2/pkgdata.inc",
    "lib/icu/Makefile.inc",
    "lib/icu/current",
    "lib/icu/pkgdata.inc",
    "lib/libicudata.a",
    "lib/libicudata.so",
    "lib/libicudata.so.58",
    "lib/libicudata.so.58.2",
    "lib/libicui18n.a",
    "lib/libicui18n.so",
    "lib/libicui18n.so.58",
    "lib/libicui18n.so.58.2",
    "lib/libicuio.a",
    "lib/libicuio.so",
    "lib/libicuio.so.58",
    "lib/libicuio.so.58.2",
    "lib/libicutest.a",
    "lib/libicutest.so",
    "lib/libicutest.so.58",
    "lib/libicutest.so.58.2",
    "lib/libicutu.a",
    "lib/libicutu.so",
    "lib/libicutu.so.58",
    "lib/libicutu.so.58.2",
    "lib/libicuuc.a",
    "lib/libicuuc.so",
    "lib/libicuuc.so.58",
    "lib/libicuuc.so.58.2",
    "lib/pkgconfig/icu-i18n.pc",
    "lib/pkgconfig/icu-io.pc",
    "lib/pkgconfig/icu-uc.pc",
    "share/icu/58.2/LICENSE",
    "share/icu/58.2/config/mh-linux",
    "share/icu/58.2/install-sh",
    "share/icu/58.2/mkinstalldirs",
    "share/man/man1/derb.1",
    "share/man/man1/genbrk.1",
    "share/man/man1/gencfu.1",
    "share/man/man1/gencnval.1",
    "share/man/man1/gendict.1",
    "share/man/man1/genrb.1",
    "share/man/man1/icu-config.1",
    "share/man/man1/makeconv.1",
    "share/man/man1/pkgdata.1",
    "share/man/man8/genccode.8",
    "share/man/man8/gencmn.8",
    "share/man/man8/gensprep.8",
    "share/man/man8/icupkg.8"
  ],
  "fn": "icu-58.2-he6710b0_3.conda",
  "legacy_bz2_md5": "9213e0336e3a5216c989cfe52648412e",
  "license": "MIT",
  "link": {
    "source": "/home/student2/PycharmProjects/masterproject/relook/jsk_apc/demos/instance_occlsegm/.anaconda3/pkgs/icu-58.2-he6710b0_3",
    "type": 1
  },
  "md5": "48cc14d5ad1a9bcd8dac17211a8deb8b",
  "name": "icu",
  "package_tarball_full_path": "/home/student2/PycharmProjects/masterproject/relook/jsk_apc/demos/instance_occlsegm/.anaconda3/pkgs/icu-58.2-he6710b0_3.conda",
  "paths_data": {
    "paths": [
      {
        "_path": "bin/derb",
        "path_type": "hardlink",
        "sha256": "1fdf94ad3cfbf38f67fa22bbc2efdffda1ec1ce010e7e85602971f8ea07f8749",
        "sha256_in_prefix": "1fdf94ad3cfbf38f67fa22bbc2efdffda1ec1ce010e7e85602971f8ea07f8749",
        "size_in_bytes": 38528
      },
      {
        "_path": "bin/genbrk",
        "path_type": "hardlink",
        "sha256": "28b654af4839114e26a17bee8ddd84b3641472112ccb21082af13e336d7c5712",
        "sha256_in_prefix": "28b654af4839114e26a17bee8ddd84b3641472112ccb21082af13e336d7c5712",
        "size_in_bytes": 25936
      },
      {
        "_path": "bin/gencfu",
        "path_type": "hardlink",
        "sha256": "f58b88ebbeee9694ea75155389b4b3187619267bf9b172b63528141239da615e",
        "sha256_in_prefix": "f58b88ebbeee9694ea75155389b4b3187619267bf9b172b63528141239da615e",
        "size_in_bytes": 21248
      },
      {
        "_path": "bin/gencnval",
        "path_type": "hardlink",
        "sha256": "79d1ab7d7548b3825a5ffe0faaf90ffa61b2681aabc8b59f0e52d740b249b1ce",
        "sha256_in_prefix": "79d1ab7d7548b3825a5ffe0faaf90ffa61b2681aabc8b59f0e52d740b249b1ce",
        "size_in_bytes": 38936
      },
      {
        "_path": "bin/gendict",
        "path_type": "hardlink",
        "sha256": "a775567db078fae1d455d80aebcd46605eee9b14d26df119c4855bc25aeefec5",
        "sha256_in_prefix": "a775567db078fae1d455d80aebcd46605eee9b14d26df119c4855bc25aeefec5",
        "size_in_bytes": 41008
      },
      {
        "_path": "bin/genrb",
        "path_type": "hardlink",
        "sha256": "42e3c1df282d12bff0959ec65a42e0db543a3a8d5cad8ccedc97e34250d0f8bb",
        "sha256_in_prefix": "42e3c1df282d12bff0959ec65a42e0db543a3a8d5cad8ccedc97e34250d0f8bb",
        "size_in_bytes": 148072
      },
      {
        "_path": "bin/icu-config",
        "file_mode": "text",
        "path_type": "hardlink",
        "prefix_placeholder": "/opt/anaconda1anaconda2anaconda3",
        "sha256": "a87475af4c946937faad5b2a0936e9b134de77625c88c19bdbd6f3dcaad225b9",
        "sha256_in_prefix": "98939f8c39b6e249976a27a27239e57a48f748ce45b40541be0815558b0ef6ab",
        "size_in_bytes": 22498
      },
      {
        "_path": "bin/icuinfo",
        "path_type": "hardlink",
        "sha256": "8739cbc897ab9e364cba3284ba2f3b30f58784353d51eb39435a273307fb5b12",
        "sha256_in_prefix": "8739cbc897ab9e364cba3284ba2f3b30f58784353d51eb39435a273307fb5b12",
        "size_in_bytes": 20872
      },
      {
        "_path": "bin/makeconv",
        "path_type": "hardlink",
        "sha256": "776413d7f05a31cfc7de5ae6876337e3486728bdbc01a602f0407ba5a4236554",
        "sha256_in_prefix": "776413d7f05a31cfc7de5ae6876337e3486728bdbc01a602f0407ba5a4236554",
        "size_in_bytes": 75464
      },
      {
        "_path": "bin/pkgdata",
        "path_type": "hardlink",
        "sha256": "31e2c144cb8598966ab210ac6b93db8bcc52021b896a10b5717734031f680521",
        "sha256_in_prefix": "31e2c144cb8598966ab210ac6b93db8bcc52021b896a10b5717734031f680521",
        "size_in_bytes": 58304
      },
      {
        "_path": "include/unicode/alphaindex.h",
        "path_type": "hardlink",
        "sha256": "1feac83595a4d9bee6da71229cf99d0a26496428987a8444b3d5d2ed40bc083d",
        "sha256_in_prefix": "1feac83595a4d9bee6da71229cf99d0a26496428987a8444b3d5d2ed40bc083d",
        "size_in_bytes": 26883
      },
      {
        "_path": "include/unicode/appendable.h",
        "path_type": "hardlink",
        "sha256": "a36043c03013371d74404bf3da20fc33a5a7f04d1116874284aaa0abd2b271ca",
        "sha256_in_prefix": "a36043c03013371d74404bf3da20fc33a5a7f04d1116874284aaa0abd2b271ca",
        "size_in_bytes": 8577
      },
      {
        "_path": "include/unicode/basictz.h",
        "path_type": "hardlink",
        "sha256": "b75b4b5299aabe707016fe525c2dfced7046eb122d7983dc7ec75a05fd38f6cf",
        "sha256_in_prefix": "b75b4b5299aabe707016fe525c2dfced7046eb122d7983dc7ec75a05fd38f6cf",
        "size_in_bytes": 9066
      },
      {
        "_path": "include/unicode/brkiter.h",
        "path_type": "hardlink",
        "sha256": "7a1d9f6e56e08d36fb13e73300b934d1021a0a00235af247e5ef2f2eafadb8d3",
        "sha256_in_prefix": "7a1d9f6e56e08d36fb13e73300b934d1021a0a00235af247e5ef2f2eafadb8d3",
        "size_in_bytes": 28283
      },
      {
        "_path": "include/unicode/bytestream.h",
        "path_type": "hardlink",
        "sha256": "d54efd49c0cb7e7d584be1d0d4cea762595dd452494be3f48ece2eab054cae7b",
        "sha256_in_prefix": "d54efd49c0cb7e7d584be1d0d4cea762595dd452494be3f48ece2eab054cae7b",
        "size_in_bytes": 9506
      },
      {
        "_path": "include/unicode/bytestrie.h",
        "path_type": "hardlink",
        "sha256": "a7bf0ddeb3f97d39db442e710ec2f5cea55e97680863c6c9758101b6ea2c2927",
        "sha256_in_prefix": "a7bf0ddeb3f97d39db442e710ec2f5cea55e97680863c6c9758101b6ea2c2927",
        "size_in_bytes": 19732
      },
      {
        "_path": "include/unicode/bytestriebuilder.h",
        "path_type": "hardlink",
        "sha256": "f82c613a5bc7809d41cb66e87a40b9a174c5d95d46878ca01f2177a4b9bb7d99",
        "sha256_in_prefix": "f82c613a5bc7809d41cb66e87a40b9a174c5d95d46878ca01f2177a4b9bb7d99",
        "size_in_bytes": 7276
      },
      {
        "_path": "include/unicode/calendar.h",
        "path_type": "hardlink",
        "sha256": "a694ce699d2b080febbea640317e2608b0b4ceda227544ad5b6d6a119abc83e5",
        "sha256_in_prefix": "a694ce699d2b080febbea640317e2608b0b4ceda227544ad5b6d6a119abc83e5",
        "size_in_bytes": 107908
      },
      {
        "_path": "include/unicode/caniter.h",
        "path_type": "hardlink",
        "sha256": "7c26aa46ce9364d601088e8ee36cd072e592a5c06396deb981bddd88c90872a4",
        "sha256_in_prefix": "7c26aa46ce9364d601088e8ee36cd072e592a5c06396deb981bddd88c90872a4",
        "size_in_bytes": 7535
      },
      {
        "_path": "include/unicode/chariter.h",
        "path_type": "hardlink",
        "sha256": "d4ebcb5614972bfc17433d682745695f9e82cc400e993f661e1a90d50a361df9",
        "sha256_in_prefix": "d4ebcb5614972bfc17433d682745695f9e82cc400e993f661e1a90d50a361df9",
        "size_in_bytes": 24403
      },
      {
        "_path": "include/unicode/choicfmt.h",
        "path_type": "hardlink",
        "sha256": "4cb0f29c33cc20ed98ae6707dbb2ddad22e1224261b714edaeea73ef06c14bd4",
        "sha256_in_prefix": "4cb0f29c33cc20ed98ae6707dbb2ddad22e1224261b714edaeea73ef06c14bd4",
        "size_in_bytes": 24429
      },
      {
        "_path": "include/unicode/coleitr.h",
        "path_type": "hardlink",
        "sha256": "3771219ff02b298fbcc78ecc05796c9434a2c19abba5c805766d8718eb8d27b6",
        "sha256_in_prefix": "3771219ff02b298fbcc78ecc05796c9434a2c19abba5c805766d8718eb8d27b6",
        "size_in_bytes": 14019
      },
      {
        "_path": "include/unicode/coll.h",
        "path_type": "hardlink",
        "sha256": "88881b7a62062b63ba450cd9447f35b098110fb41c52cbd01b8510289cc62116",
        "sha256_in_prefix": "88881b7a62062b63ba450cd9447f35b098110fb41c52cbd01b8510289cc62116",
        "size_in_bytes": 56920
      },
      {
        "_path": "include/unicode/compactdecimalformat.h",
        "path_type": "hardlink",
        "sha256": "bb75f45949c552c9c46c80464037c480c38ad658234746c8c6957fa5a38f1aaf",
        "sha256_in_prefix": "bb75f45949c552c9c46c80464037c480c38ad658234746c8c6957fa5a38f1aaf",
        "size_in_bytes": 16985
      },
      {
        "_path": "include/unicode/curramt.h",
        "path_type": "hardlink",
        "sha256": "f7ffe674281cb873294ae51bb6436072362f8a03b93f2d0ca525ca78a2b9c654",
        "sha256_in_prefix": "f7ffe674281cb873294ae51bb6436072362f8a03b93f2d0ca525ca78a2b9c654",
        "size_in_bytes": 3783
      },
      {
        "_path": "include/unicode/currpinf.h",
        "path_type": "hardlink",
        "sha256": "d5bea5a78893f906a9856eba4060c416803bd04e5a77c15b70cbf96e7efbdd36",
        "sha256_in_prefix": "d5bea5a78893f906a9856eba4060c416803bd04e5a77c15b70cbf96e7efbdd36",
        "size_in_bytes": 7260
      },
      {
        "_path": "include/unicode/currunit.h",
        "path_type": "hardlink",
        "sha256": "6ae7161e0710bdecd3fbe77e65f9fdcd147537fa0ccd802aeb6669671634be6a",
        "sha256_in_prefix": "6ae7161e0710bdecd3fbe77e65f9fdcd147537fa0ccd802aeb6669671634be6a",
        "size_in_bytes": 3000
      },
      {
        "_path": "include/unicode/datefmt.h",
        "path_type": "hardlink",
        "sha256": "d4274ea867511152c43c01d11e62c79acd4b3eae7c1360a5a154fb225661e9d3",
        "sha256_in_prefix": "d4274ea867511152c43c01d11e62c79acd4b3eae7c1360a5a154fb225661e9d3",
        "size_in_bytes": 41159
      },
      {
        "_path": "include/unicode/dbbi.h",
        "path_type": "hardlink",
        "sha256": "f902973906f0ca4128a008fde6f0244b6cec64dbfa38d460757c585b52d89722",
        "sha256_in_prefix": "f902973906f0ca4128a008fde6f0244b6cec64dbfa38d460757c585b52d89722",
        "size_in_bytes": 1144
      },
      {
        "_path": "include/unicode/dcfmtsym.h",
        "path_type": "hardlink",
        "sha256": "86e787b0dcc6dc6fdce4081aeed013735358a1cabb4ab5296d0581b068c1db92",
        "sha256_in_prefix": "86e787b0dcc6dc6fdce4081aeed013735358a1cabb4ab5296d0581b068c1db92",
        "size_in_bytes": 16974
      },
      {
        "_path": "include/unicode/decimfmt.h",
        "path_type": "hardlink",
        "sha256": "fc9f89f28cff8f7fba97777be7bb55cedc7336a2cc18194e10a8407c0ec2cde7",
        "sha256_in_prefix": "fc9f89f28cff8f7fba97777be7bb55cedc7336a2cc18194e10a8407c0ec2cde7",
        "size_in_bytes": 92811
      },
      {
        "_path": "include/unicode/docmain.h",
        "path_type": "hardlink",
        "sha256": "ffde45bf36c919ddcdf81d26fe5cdec15a66cf90b7a8abd6f47faed08df24c95",
        "sha256_in_prefix": "ffde45bf36c919ddcdf81d26fe5cdec15a66cf90b7a8abd6f47faed08df24c95",
        "size_in_bytes": 6570
      },
      {
        "_path": "include/unicode/dtfmtsym.h",
        "path_type": "hardlink",
        "sha256": "9567dfe3d785e62a350bde040822809006c6f5d781d059aeb1d8a631a0aec7e8",
        "sha256_in_prefix": "9567dfe3d785e62a350bde040822809006c6f5d781d059aeb1d8a631a0aec7e8",
        "size_in_bytes": 38515
      },
      {
        "_path": "include/unicode/dtintrv.h",
        "path_type": "hardlink",
        "sha256": "826020a48aeb2975bcda576f5ecf8fd9d21a4cafb40204f43193c37bb0a08e3a",
        "sha256_in_prefix": "826020a48aeb2975bcda576f5ecf8fd9d21a4cafb40204f43193c37bb0a08e3a",
        "size_in_bytes": 3858
      },
      {
        "_path": "include/unicode/dtitvfmt.h",
        "path_type": "hardlink",
        "sha256": "34e442ed2cc50dc1337f0458a0a9fe5347010de2978d0557b4f489d15841422b",
        "sha256_in_prefix": "34e442ed2cc50dc1337f0458a0a9fe5347010de2978d0557b4f489d15841422b",
        "size_in_bytes": 43906
      },
      {
        "_path": "include/unicode/dtitvinf.h",
        "path_type": "hardlink",
        "sha256": "6944992f77c6e4439d5a298339bc26e8cdada3b0f107a6c354a4588e07430811",
        "sha256_in_prefix": "6944992f77c6e4439d5a298339bc26e8cdada3b0f107a6c354a4588e07430811",
        "size_in_bytes": 19073
      },
      {
        "_path": "include/unicode/dtptngen.h",
        "path_type": "hardlink",
        "sha256": "f5bd3ac126c72b2cfce8491b19e73c3bf93c9d36a17ea1918f63e1353ea59d65",
        "sha256_in_prefix": "f5bd3ac126c72b2cfce8491b19e73c3bf93c9d36a17ea1918f63e1353ea59d65",
        "size_in_bytes": 24109
      },
      {
        "_path": "include/unicode/dtrule.h",
        "path_type": "hardlink",
        "sha256": "1227ef619573cd9ea5b6d86c67736ce5c366bf80e07a232dd42403f2f17c235b",
        "sha256_in_prefix": "1227ef619573cd9ea5b6d86c67736ce5c366bf80e07a232dd42403f2f17c235b",
        "size_in_bytes": 8842
      },
      {
        "_path": "include/unicode/enumset.h",
        "path_type": "hardlink",
        "sha256": "e32d22bb98bd3545f67d9f8356f38cda0659f1f75ac0b8a5d6fdab7f48248c1f",
        "sha256_in_prefix": "e32d22bb98bd3545f67d9f8356f38cda0659f1f75ac0b8a5d6fdab7f48248c1f",
        "size_in_bytes": 2115
      },
      {
        "_path": "include/unicode/errorcode.h",
        "path_type": "hardlink",
        "sha256": "823bb463464d42be2bfda2c84a71519929fc012440d9289bf0f085700e434ed7",
        "sha256_in_prefix": "823bb463464d42be2bfda2c84a71519929fc012440d9289bf0f085700e434ed7",
        "size_in_bytes": 4908
      },
      {
        "_path": "include/unicode/fieldpos.h",
        "path_type": "hardlink",
        "sha256": "87257e9e153f46cddfaf6bd1dc180b54de6b5a827e9236ee776e599da5277de6",
        "sha256_in_prefix": "87257e9e153f46cddfaf6bd1dc180b54de6b5a827e9236ee776e599da5277de6",
        "size_in_bytes": 8849
      },
      {
        "_path": "include/unicode/filteredbrk.h",
        "path_type": "hardlink",
        "sha256": "ea643e419547f97aa12ed06c83243e34b36a1918d1417f3778e3e660633d64fa",
        "sha256_in_prefix": "ea643e419547f97aa12ed06c83243e34b36a1918d1417f3778e3e660633d64fa",
        "size_in_bytes": 4395
      },
      {
        "_path": "include/unicode/fmtable.h",
        "path_type": "hardlink",
        "sha256": "76e2ac7091d6900a126d0d580b7ddf0e4866c3e44e20586aa1d788ba050858a1",
        "sha256_in_prefix": "76e2ac7091d6900a126d0d580b7ddf0e4866c3e44e20586aa1d788ba050858a1",
        "size_in_bytes": 24988
      },
      {
        "_path": "include/unicode/format.h",
        "path_type": "hardlink",
        "sha256": "c5553ff5b5f81686579f2d3258badb46f9c3ca07cf5cad4b5b952faf38cea684",
        "sha256_in_prefix": "c5553ff5b5f81686579f2d3258badb46f9c3ca07cf5cad4b5b952faf38cea684",
        "size_in_bytes": 12752
      },
      {
        "_path": "include/unicode/fpositer.h",
        "path_type": "hardlink",
        "sha256": "7bf367e497b270a56b5482145f5eca7744230ef8eec08c5393766965b29eefdc",
        "sha256_in_prefix": "7bf367e497b270a56b5482145f5eca7744230ef8eec08c5393766965b29eefdc",
        "size_in_bytes": 3058
      },
      {
        "_path": "include/unicode/gender.h",
        "path_type": "hardlink",
        "sha256": "0c8a378d30215241f8adf61aa33325ae24f88462f4bd8264cf6d66114bfc0e93",
        "sha256_in_prefix": "0c8a378d30215241f8adf61aa33325ae24f88462f4bd8264cf6d66114bfc0e93",
        "size_in_bytes": 3264
      },
      {
        "_path": "include/unicode/gregocal.h",
        "path_type": "hardlink",
        "sha256": "d76baac4c1bb8e3a7b169feff0bb4a850acaddf4a8adddacb52b14d8ba334d01",
        "sha256_in_prefix": "d76baac4c1bb8e3a7b169feff0bb4a850acaddf4a8adddacb52b14d8ba334d01",
        "size_in_bytes": 32342
      },
      {
        "_path": "include/unicode/icudataver.h",
        "path_type": "hardlink",
        "sha256": "b1d0d899ef817919332e3e2882d7771f43fad6fdd3b0f4ae19c324113e5bc41e",
        "sha256_in_prefix": "b1d0d899ef817919332e3e2882d7771f43fad6fdd3b0f4ae19c324113e5bc41e",
        "size_in_bytes": 1062
      },
      {
        "_path": "include/unicode/icuplug.h",
        "path_type": "hardlink",
        "sha256": "1d8501968aa248d89944f9109b2ce57120c9dd5bd0c143cdaaefb5527bd15df9",
        "sha256_in_prefix": "1d8501968aa248d89944f9109b2ce57120c9dd5bd0c143cdaaefb5527bd15df9",
        "size_in_bytes": 12152
      },
      {
        "_path": "include/unicode/idna.h",
        "path_type": "hardlink",
        "sha256": "1adcbb08730cd0f91f22f01c919d4503bf21377bb3553eefb4f37118a5adfd49",
        "sha256_in_prefix": "1adcbb08730cd0f91f22f01c919d4503bf21377bb3553eefb4f37118a5adfd49",
        "size_in_bytes": 12952
      },
      {
        "_path": "include/unicode/listformatter.h",
        "path_type": "hardlink",
        "sha256": "9f9b0b1b185b4fcf7bee5c9e7a9dd9af6c06ca050147290ff5f70727d398da8c",
        "sha256_in_prefix": "9f9b0b1b185b4fcf7bee5c9e7a9dd9af6c06ca050147290ff5f70727d398da8c",
        "size_in_bytes": 4963
      },
      {
        "_path": "include/unicode/localpointer.h",
        "path_type": "hardlink",
        "sha256": "43e219e05cb388abc68e4ad02f336dfdeb0c67bc0a1b590907a4f4a707c572a7",
        "sha256_in_prefix": "43e219e05cb388abc68e4ad02f336dfdeb0c67bc0a1b590907a4f4a707c572a7",
        "size_in_bytes": 18623
      },
      {
        "_path": "include/unicode/locdspnm.h",
        "path_type": "hardlink",
        "sha256": "49eae6a40bb3e8d6dc5bf2007c6147b30821020b4baba120c8a783704d9fe49d",
        "sha256_in_prefix": "49eae6a40bb3e8d6dc5bf2007c6147b30821020b4baba120c8a783704d9fe49d",
        "size_in_bytes": 7206
      },
      {
        "_path": "include/unicode/locid.h",
        "path_type": "hardlink",
        "sha256": "d8eadb5b3c90f5718c6c3367d34ee253bbb0f7778589981f1d37ab2e4278cbee",
        "sha256_in_prefix": "d8eadb5b3c90f5718c6c3367d34ee253bbb0f7778589981f1d37ab2e4278cbee",
        "size_in_bytes": 32171
      },
      {
        "_path": "include/unicode/measfmt.h",
        "path_type": "hardlink",
        "sha256": "8720197bd577ae8d7d90aebaac1969832fd98eb073a1ce52d16833e6b924a577",
        "sha256_in_prefix": "8720197bd577ae8d7d90aebaac1969832fd98eb073a1ce52d16833e6b924a577",
        "size_in_bytes": 11580
      },
      {
        "_path": "include/unicode/measunit.h",
        "path_type": "hardlink",
        "sha256": "29a7cc496a5dc33c757222daf9a61c49162832611dab0920eeb9e11d2ba59d16",
        "sha256_in_prefix": "29a7cc496a5dc33c757222daf9a61c49162832611dab0920eeb9e11d2ba59d16",
        "size_in_bytes": 39352
      },
      {
        "_path": "include/unicode/measure.h",
        "path_type": "hardlink",
        "sha256": "06abfdf3d220517d70edae8b79377f0b6c61fe983bc24e10e25a8a70bcd626de",
        "sha256_in_prefix": "06abfdf3d220517d70edae8b79377f0b6c61fe983bc24e10e25a8a70bcd626de",
        "size_in_bytes": 4372
      },
      {
        "_path": "include/unicode/messagepattern.h",
        "path_type": "hardlink",
        "sha256": "f9d6c5544a94fa99398782c9d5af0be5c99375bd178c5d2e9faa8975bbb23c40",
        "sha256_in_prefix": "f9d6c5544a94fa99398782c9d5af0be5c99375bd178c5d2e9faa8975bbb23c40",
        "size_in_bytes": 34463
      },
      {
        "_path": "include/unicode/msgfmt.h",
        "path_type": "hardlink",
        "sha256": "46e3f92ef6fc5bf34cb5835f93d07a1fdf773275c5d8ef831e3bd92a9eb48502",
        "sha256_in_prefix": "46e3f92ef6fc5bf34cb5835f93d07a1fdf773275c5d8ef831e3bd92a9eb48502",
        "size_in_bytes": 44205
      },
      {
        "_path": "include/unicode/normalizer2.h",
        "path_type": "hardlink",
        "sha256": "a1431a4c03f9e8f5783368d7316f378d7e9412d64c333e5cdb1038e9384f3ff6",
        "sha256_in_prefix": "a1431a4c03f9e8f5783368d7316f378d7e9412d64c333e5cdb1038e9384f3ff6",
        "size_in_bytes": 28972
      },
      {
        "_path": "include/unicode/normlzr.h",
        "path_type": "hardlink",
        "sha256": "7c789bdc1103046581a5d6119380b3b7ea40c351fc15c979487203c5135e6c8a",
        "sha256_in_prefix": "7c789bdc1103046581a5d6119380b3b7ea40c351fc15c979487203c5135e6c8a",
        "size_in_bytes": 31459
      },
      {
        "_path": "include/unicode/numfmt.h",
        "path_type": "hardlink",
        "sha256": "ccaf0064e4cc3e1478b500938a67ee9b281f5f3cdd21e87d6c5a927df35d1638",
        "sha256_in_prefix": "ccaf0064e4cc3e1478b500938a67ee9b281f5f3cdd21e87d6c5a927df35d1638",
        "size_in_bytes": 47083
      },
      {
        "_path": "include/unicode/numsys.h",
        "path_type": "hardlink",
        "sha256": "4ffae684a47d611aee539371dc89645aae5bcab40c8983c3b63a8eccb45fd0f1",
        "sha256_in_prefix": "4ffae684a47d611aee539371dc89645aae5bcab40c8983c3b63a8eccb45fd0f1",
        "size_in_bytes": 6899
      },
      {
        "_path": "include/unicode/parseerr.h",
        "path_type": "hardlink",
        "sha256": "b0c1234e063de31f07bdba3271e65f07228b822d68a5af9104e1162c83d6c600",
        "sha256_in_prefix": "b0c1234e063de31f07bdba3271e65f07228b822d68a5af9104e1162c83d6c600",
        "size_in_bytes": 3168
      },
      {
        "_path": "include/unicode/parsepos.h",
        "path_type": "hardlink",
        "sha256": "a7be97b3169cc8dc0c62a8013886e21bb665ac8a10ecb75e89a5b9f2e617192f",
        "sha256_in_prefix": "a7be97b3169cc8dc0c62a8013886e21bb665ac8a10ecb75e89a5b9f2e617192f",
        "size_in_bytes": 5592
      },
      {
        "_path": "include/unicode/platform.h",
        "path_type": "hardlink",
        "sha256": "29e50a5c577a557cd375db76a28d494cec98a822ec771527e434c4c8e1a22f46",
        "sha256_in_prefix": "29e50a5c577a557cd375db76a28d494cec98a822ec771527e434c4c8e1a22f46",
        "size_in_bytes": 27906
      },
      {
        "_path": "include/unicode/plurfmt.h",
        "path_type": "hardlink",
        "sha256": "64f4db856fc7911737401c69442d65c28efc8382f6f0c002fae0551111324113",
        "sha256_in_prefix": "64f4db856fc7911737401c69442d65c28efc8382f6f0c002fae0551111324113",
        "size_in_bytes": 26289
      },
      {
        "_path": "include/unicode/plurrule.h",
        "path_type": "hardlink",
        "sha256": "c12e83fe909b2f59102998084075f7e54d45b174dd878c65aeff8683d6b6b1d8",
        "sha256_in_prefix": "c12e83fe909b2f59102998084075f7e54d45b174dd878c65aeff8683d6b6b1d8",
        "size_in_bytes": 17697
      },
      {
        "_path": "include/unicode/ptypes.h",
        "path_type": "hardlink",
        "sha256": "190f3895fb6e8d2162919222f81ee6d69d0f9e1ea13f6dada559a8e109b9f6a9",
        "sha256_in_prefix": "190f3895fb6e8d2162919222f81ee6d69d0f9e1ea13f6dada559a8e109b9f6a9",
        "size_in_bytes": 3565
      },
      {
        "_path": "include/unicode/putil.h",
        "path_type": "hardlink",
        "sha256": "057be63e0bbb2d9b06739b8bb1039c0521a624178d885617059dd2c5c3e27a72",
        "sha256_in_prefix": "057be63e0bbb2d9b06739b8bb1039c0521a624178d885617059dd2c5c3e27a72",
        "size_in_bytes": 6499
      },
      {
        "_path": "include/unicode/rbbi.h",
        "path_type": "hardlink",
        "sha256": "ef1fd45534d9c9278a0f02a10452780c2762c89392d7af25c4dfba8ada2b001f",
        "sha256_in_prefix": "ef1fd45534d9c9278a0f02a10452780c2762c89392d7af25c4dfba8ada2b001f",
        "size_in_bytes": 28444
      },
      {
        "_path": "include/unicode/rbnf.h",
        "path_type": "hardlink",
        "sha256": "93d68e0422fba4439a70cfeab0d0e9a8e26b6de8cd4d63400bca066a3d33b318",
        "sha256_in_prefix": "93d68e0422fba4439a70cfeab0d0e9a8e26b6de8cd4d63400bca066a3d33b318",
        "size_in_bytes": 48138
      },
      {
        "_path": "include/unicode/rbtz.h",
        "path_type": "hardlink",
        "sha256": "96525f911027e1f54161667396fa359bb7b6134ab85e1a186dc6cbaa698a60ac",
        "sha256_in_prefix": "96525f911027e1f54161667396fa359bb7b6134ab85e1a186dc6cbaa698a60ac",
        "size_in_bytes": 15849
      },
      {
        "_path": "include/unicode/regex.h",
        "path_type": "hardlink",
        "sha256": "9831697ea1cc61374be68ad827d7e8296efe511dd93efe9d6a68cd8e65c4284c",
        "sha256_in_prefix": "9831697ea1cc61374be68ad827d7e8296efe511dd93efe9d6a68cd8e65c4284c",
        "size_in_bytes": 86912
      },
      {
        "_path": "include/unicode/region.h",
        "path_type": "hardlink",
        "sha256": "4395ba93d753b256d251fe598c3bfbf0bc4c84334664ae97df4232fe068fd2c1",
        "sha256_in_prefix": "4395ba93d753b256d251fe598c3bfbf0bc4c84334664ae97df4232fe068fd2c1",
        "size_in_bytes": 9352
      },
      {
        "_path": "include/unicode/reldatefmt.h",
        "path_type": "hardlink",
        "sha256": "f3330fa7bef0805c53e7660a5027b753b9757895c885de615dfd0c96632bf18e",
        "sha256_in_prefix": "f3330fa7bef0805c53e7660a5027b753b9757895c885de615dfd0c96632bf18e",
        "size_in_bytes": 14689
      },
      {
        "_path": "include/unicode/rep.h",
        "path_type": "hardlink",
        "sha256": "e5bbf1f261c586e7160007761186f4b2f5acaed5e4055a63692a6203a6d5fa0a",
        "sha256_in_prefix": "e5bbf1f261c586e7160007761186f4b2f5acaed5e4055a63692a6203a6d5fa0a",
        "size_in_bytes": 9728
      },
      {
        "_path": "include/unicode/resbund.h",
        "path_type": "hardlink",
        "sha256": "43455e418c60fc5c6f0060db0c3203c75f17b3e19f72a24b9e43d7c54dba3ee1",
        "sha256_in_prefix": "43455e418c60fc5c6f0060db0c3203c75f17b3e19f72a24b9e43d7c54dba3ee1",
        "size_in_bytes": 18447
      },
      {
        "_path": "include/unicode/schriter.h",
        "path_type": "hardlink",
        "sha256": "5674c5f025c3215df38fd39ff0345d203783bd3f5cad57c3611fc2205c609f91",
        "sha256_in_prefix": "5674c5f025c3215df38fd39ff0345d203783bd3f5cad57c3611fc2205c609f91",
        "size_in_bytes": 6417
      },
      {
        "_path": "include/unicode/scientificnumberformatter.h",
        "path_type": "hardlink",
        "sha256": "46d61391db667d6f105ec1b574c5e8e8eeecd259507bb268a28cc3618a577822",
        "sha256_in_prefix": "46d61391db667d6f105ec1b574c5e8e8eeecd259507bb268a28cc3618a577822",
        "size_in_bytes": 6762
      },
      {
        "_path": "include/unicode/search.h",
        "path_type": "hardlink",
        "sha256": "ae9b267299da936e32e7b4d9cb2108b6596f5912da3c16163e27af2269f1f00d",
        "sha256_in_prefix": "ae9b267299da936e32e7b4d9cb2108b6596f5912da3c16163e27af2269f1f00d",
        "size_in_bytes": 22753
      },
      {
        "_path": "include/unicode/selfmt.h",
        "path_type": "hardlink",
        "sha256": "f20efcd58c5927251074ff3dcdfff3dbee64194a7f89f9b0fde1288eea093e02",
        "sha256_in_prefix": "f20efcd58c5927251074ff3dcdfff3dbee64194a7f89f9b0fde1288eea093e02",
        "size_in_bytes": 14590
      },
      {
        "_path": "include/unicode/simpleformatter.h",
        "path_type": "hardlink",
        "sha256": "56c43cb582b9617956295c49ad0b53ad14daa3b2c866452d2a1925d46b77086a",
        "sha256_in_prefix": "56c43cb582b9617956295c49ad0b53ad14daa3b2c866452d2a1925d46b77086a",
        "size_in_bytes": 11534
      },
      {
        "_path": "include/unicode/simpletz.h",
        "path_type": "hardlink",
        "sha256": "fb394982ea2db6cf8fee35cb492f3408d76deddb0a18ec25a180b8aa7f04d392",
        "sha256_in_prefix": "fb394982ea2db6cf8fee35cb492f3408d76deddb0a18ec25a180b8aa7f04d392",
        "size_in_bytes": 46340
      },
      {
        "_path": "include/unicode/smpdtfmt.h",
        "path_type": "hardlink",
        "sha256": "242549642d43943d0a5357ab6ff8a41d37b1e684f982b6e3b404494663bb899e",
        "sha256_in_prefix": "242549642d43943d0a5357ab6ff8a41d37b1e684f982b6e3b404494663bb899e",
        "size_in_bytes": 71403
      },
      {
        "_path": "include/unicode/sortkey.h",
        "path_type": "hardlink",
        "sha256": "21a6a8762fc06fd0c57b8ceae210dbcd61b529b53cdac2d0d083d9ae9f730de6",
        "sha256_in_prefix": "21a6a8762fc06fd0c57b8ceae210dbcd61b529b53cdac2d0d083d9ae9f730de6",
        "size_in_bytes": 11394
      },
      {
        "_path": "include/unicode/std_string.h",
        "path_type": "hardlink",
        "sha256": "eb25014c9f7a1cf76204005533e0baf06bc7cc899d536b0f5d6789eaf89168df",
        "sha256_in_prefix": "eb25014c9f7a1cf76204005533e0baf06bc7cc899d536b0f5d6789eaf89168df",
        "size_in_bytes": 1029
      },
      {
        "_path": "include/unicode/strenum.h",
        "path_type": "hardlink",
        "sha256": "aee387626fc049bbcc63d560d7e811e2825ce3657cd10be58064d5397968aae1",
        "sha256_in_prefix": "aee387626fc049bbcc63d560d7e811e2825ce3657cd10be58064d5397968aae1",
        "size_in_bytes": 10278
      },
      {
        "_path": "include/unicode/stringpiece.h",
        "path_type": "hardlink",
        "sha256": "6eedafd097f470022c174f46d9025d1b860bc689fb6c0cbfe0a1c02240c5957d",
        "sha256_in_prefix": "6eedafd097f470022c174f46d9025d1b860bc689fb6c0cbfe0a1c02240c5957d",
        "size_in_bytes": 6650
      },
      {
        "_path": "include/unicode/stringtriebuilder.h",
        "path_type": "hardlink",
        "sha256": "2eec3ce26adfab7e9ebe171e0ed300d06a23af1157a44bfe866fb182ade6074f",
        "sha256_in_prefix": "2eec3ce26adfab7e9ebe171e0ed300d06a23af1157a44bfe866fb182ade6074f",
        "size_in_bytes": 15539
      },
      {
        "_path": "include/unicode/stsearch.h",
        "path_type": "hardlink",
        "sha256": "47a85d18867acd62710fd5b835741a7711d207b35f03dfa48a703a7358a7127a",
        "sha256_in_prefix": "47a85d18867acd62710fd5b835741a7711d207b35f03dfa48a703a7358a7127a",
        "size_in_bytes": 21812
      },
      {
        "_path": "include/unicode/symtable.h",
        "path_type": "hardlink",
        "sha256": "b8a5ed84aa4defd57a8e16ebf41916f5c8e993fcfb36a817758d52b7254356c5",
        "sha256_in_prefix": "b8a5ed84aa4defd57a8e16ebf41916f5c8e993fcfb36a817758d52b7254356c5",
        "size_in_bytes": 4323
      },
      {
        "_path": "include/unicode/tblcoll.h",
        "path_type": "hardlink",
        "sha256": "eee43002d8483035e07ccc43dec1975fe6515fe9df334451e25b9f3d962e74d8",
        "sha256_in_prefix": "eee43002d8483035e07ccc43dec1975fe6515fe9df334451e25b9f3d962e74d8",
        "size_in_bytes": 37244
      },
      {
        "_path": "include/unicode/timezone.h",
        "path_type": "hardlink",
        "sha256": "e2dcd11e67ea97de600d4ed868e1f1f61154628205d48749a02f9dd895896f9d",
        "sha256_in_prefix": "e2dcd11e67ea97de600d4ed868e1f1f61154628205d48749a02f9dd895896f9d",
        "size_in_bytes": 41806
      },
      {
        "_path": "include/unicode/tmunit.h",
        "path_type": "hardlink",
        "sha256": "417cd636aef1a7f95f1519032039cb767c3b0caa2cfae9e86340a565ba1b56d5",
        "sha256_in_prefix": "417cd636aef1a7f95f1519032039cb767c3b0caa2cfae9e86340a565ba1b56d5",
        "size_in_bytes": 3382
      },
      {
        "_path": "include/unicode/tmutamt.h",
        "path_type": "hardlink",
        "sha256": "c49f7ebc9bb9a32ea3797a3be645853d8d63c7ad3564a39ca0fc1723e041f9a1",
        "sha256_in_prefix": "c49f7ebc9bb9a32ea3797a3be645853d8d63c7ad3564a39ca0fc1723e041f9a1",
        "size_in_bytes": 4929
      },
      {
        "_path": "include/unicode/tmutfmt.h",
        "path_type": "hardlink",
        "sha256": "fd6a52ec1e3a0ce41faf9688af10c35330d41c65108093f9ee3a7e47f42e0f85",
        "sha256_in_prefix": "fd6a52ec1e3a0ce41faf9688af10c35330d41c65108093f9ee3a7e47f42e0f85",
        "size_in_bytes": 7988
      },
      {
        "_path": "include/unicode/translit.h",
        "path_type": "hardlink",
        "sha256": "9c7f6ca1f0b947a868b0a9c57be3c5ac5a9313d35d1befb1f881b1a80b974861",
        "sha256_in_prefix": "9c7f6ca1f0b947a868b0a9c57be3c5ac5a9313d35d1befb1f881b1a80b974861",
        "size_in_bytes": 55843
      },
      {
        "_path": "include/unicode/tzfmt.h",
        "path_type": "hardlink",
        "sha256": "093789d9d4cfdff6fee10601224736b0e7a81e64770352a5359fa791db33bdf6",
        "sha256_in_prefix": "093789d9d4cfdff6fee10601224736b0e7a81e64770352a5359fa791db33bdf6",
        "size_in_bytes": 43840
      },
      {
        "_path": "include/unicode/tznames.h",
        "path_type": "hardlink",
        "sha256": "a75318a3ef51a2b2c6b3326ccf20abb844f01c32a84a7355f6ddc8aaf09c6b26",
        "sha256_in_prefix": "a75318a3ef51a2b2c6b3326ccf20abb844f01c32a84a7355f6ddc8aaf09c6b26",
        "size_in_bytes": 17263
      },
      {
        "_path": "include/unicode/tzrule.h",
        "path_type": "hardlink",
        "sha256": "082f3a78259730cc48edb47bea63588c2e3b760a1fb726098ac9d9048c34b110",
        "sha256_in_prefix": "082f3a78259730cc48edb47bea63588c2e3b760a1fb726098ac9d9048c34b110",
        "size_in_bytes": 36181
      },
      {
        "_path": "include/unicode/tztrans.h",
        "path_type": "hardlink",
        "sha256": "217064d2a82a5fb14fe605fd509646ae6fc899f26c67b741899c5798254f09fe",
        "sha256_in_prefix": "217064d2a82a5fb14fe605fd509646ae6fc899f26c67b741899c5798254f09fe",
        "size_in_bytes": 6225
      },
      {
        "_path": "include/unicode/ubidi.h",
        "path_type": "hardlink",
        "sha256": "dcc20e85e53bfc873260609cc9a0d1890fe8d8d03b01b2a8b7aac2b49e18a4e7",
        "sha256_in_prefix": "dcc20e85e53bfc873260609cc9a0d1890fe8d8d03b01b2a8b7aac2b49e18a4e7",
        "size_in_bytes": 91279
      },
      {
        "_path": "include/unicode/ubiditransform.h",
        "path_type": "hardlink",
        "sha256": "c78fb8bebeb6ad277daa54e6a2ce0ad09eb435d9d687ea31bff4398ddc89a206",
        "sha256_in_prefix": "c78fb8bebeb6ad277daa54e6a2ce0ad09eb435d9d687ea31bff4398ddc89a206",
        "size_in_bytes": 13067
      },
      {
        "_path": "include/unicode/ubrk.h",
        "path_type": "hardlink",
        "sha256": "8f4954c59479ab3606ffbb66e616cfbe2e2b473f247ba07c093218588248e5ac",
        "sha256_in_prefix": "8f4954c59479ab3606ffbb66e616cfbe2e2b473f247ba07c093218588248e5ac",
        "size_in_bytes": 21241
      },
      {
        "_path": "include/unicode/ucal.h",
        "path_type": "hardlink",
        "sha256": "6d4045fc2bc182e8d22aa607685f77db9d7e0ce5dc731fc9deaf3f9bef4cd26e",
        "sha256_in_prefix": "6d4045fc2bc182e8d22aa607685f77db9d7e0ce5dc731fc9deaf3f9bef4cd26e",
        "size_in_bytes": 55864
      },
      {
        "_path": "include/unicode/ucasemap.h",
        "path_type": "hardlink",
        "sha256": "f5313ef7384f9d0e3e66fa099f304e28945d6067d5cf7717ec89826e75108b9c",
        "sha256_in_prefix": "f5313ef7384f9d0e3e66fa099f304e28945d6067d5cf7717ec89826e75108b9c",
        "size_in_bytes": 16968
      },
      {
        "_path": "include/unicode/ucat.h",
        "path_type": "hardlink",
        "sha256": "b83847223c50bebb455d1468633973c1a86c8bf8cd22cec8f65383367e8b5c20",
        "sha256_in_prefix": "b83847223c50bebb455d1468633973c1a86c8bf8cd22cec8f65383367e8b5c20",
        "size_in_bytes": 5495
      },
      {
        "_path": "include/unicode/uchar.h",
        "path_type": "hardlink",
        "sha256": "88d37cc059fe43171a177249c76519e6ffafa450c130b172f99d24578f0cce01",
        "sha256_in_prefix": "88d37cc059fe43171a177249c76519e6ffafa450c130b172f99d24578f0cce01",
        "size_in_bytes": 134056
      },
      {
        "_path": "include/unicode/ucharstrie.h",
        "path_type": "hardlink",
        "sha256": "6cbe626692caf2a8419940755f559c22094c59ad1323f84790aa3a8c647a5f7a",
        "sha256_in_prefix": "6cbe626692caf2a8419940755f559c22094c59ad1323f84790aa3a8c647a5f7a",
        "size_in_bytes": 21421
      },
      {
        "_path": "include/unicode/ucharstriebuilder.h",
        "path_type": "hardlink",
        "sha256": "0026ab508f8b2d35a3b1cbb33209cb576dec15e4916154483e9057b92785679c",
        "sha256_in_prefix": "0026ab508f8b2d35a3b1cbb33209cb576dec15e4916154483e9057b92785679c",
        "size_in_bytes": 7300
      },
      {
        "_path": "include/unicode/uchriter.h",
        "path_type": "hardlink",
        "sha256": "e85a756cbd4a2f5cb4f5ab6d84fdba6b3b93b549d3c1b712562197e03aae472c",
        "sha256_in_prefix": "e85a756cbd4a2f5cb4f5ab6d84fdba6b3b93b549d3c1b712562197e03aae472c",
        "size_in_bytes": 13256
      },
      {
        "_path": "include/unicode/uclean.h",
        "path_type": "hardlink",
        "sha256": "7b0c81ec3dd90fd485a941aca4d681b3c68ff16b88b8b84df8e4841c99628c88",
        "sha256_in_prefix": "7b0c81ec3dd90fd485a941aca4d681b3c68ff16b88b8b84df8e4841c99628c88",
        "size_in_bytes": 11422
      },
      {
        "_path": "include/unicode/ucnv.h",
        "path_type": "hardlink",
        "sha256": "43c9a31a69d4ae1b116b0ac3ba75913d020bbca6e5c74951ca65b9c3eb5f748f",
        "sha256_in_prefix": "43c9a31a69d4ae1b116b0ac3ba75913d020bbca6e5c74951ca65b9c3eb5f748f",
        "size_in_bytes": 85066
      },
      {
        "_path": "include/unicode/ucnv_cb.h",
        "path_type": "hardlink",
        "sha256": "1a70bb9b646539e9b3ed8e1f7863fa571c32d91cbdea9e970edd01244292b60f",
        "sha256_in_prefix": "1a70bb9b646539e9b3ed8e1f7863fa571c32d91cbdea9e970edd01244292b60f",
        "size_in_bytes": 6759
      },
      {
        "_path": "include/unicode/ucnv_err.h",
        "path_type": "hardlink",
        "sha256": "360b186778684b1e596cfa4040a35f2535456a7539fd5a1db227942023dbd775",
        "sha256_in_prefix": "360b186778684b1e596cfa4040a35f2535456a7539fd5a1db227942023dbd775",
        "size_in_bytes": 21499
      },
      {
        "_path": "include/unicode/ucnvsel.h",
        "path_type": "hardlink",
        "sha256": "cefa436513ea8d001bef50ef08a14b883a9132ff8fba991986ff20ea8a111d83",
        "sha256_in_prefix": "cefa436513ea8d001bef50ef08a14b883a9132ff8fba991986ff20ea8a111d83",
        "size_in_bytes": 6294
      },
      {
        "_path": "include/unicode/ucol.h",
        "path_type": "hardlink",
        "sha256": "581ce326802ceabc80b4669517fa9001aa8dde6c0d19949190acf4718727b07f",
        "sha256_in_prefix": "581ce326802ceabc80b4669517fa9001aa8dde6c0d19949190acf4718727b07f",
        "size_in_bytes": 62828
      },
      {
        "_path": "include/unicode/ucoleitr.h",
        "path_type": "hardlink",
        "sha256": "e43cae98738b29fa4b0128515fb1fcc2d5159c0c0ad3dc944b6bdb25bce960cc",
        "sha256_in_prefix": "e43cae98738b29fa4b0128515fb1fcc2d5159c0c0ad3dc944b6bdb25bce960cc",
        "size_in_bytes": 9685
      },
      {
        "_path": "include/unicode/uconfig.h",
        "path_type": "hardlink",
        "sha256": "d8eb54f2f548131a34dc957e5d590377fc5af3a76a389d364484dd091195cc56",
        "sha256_in_prefix": "d8eb54f2f548131a34dc957e5d590377fc5af3a76a389d364484dd091195cc56",
        "size_in_bytes": 12167
      },
      {
        "_path": "include/unicode/ucsdet.h",
        "path_type": "hardlink",
        "sha256": "26fcdaa9755953940141f1125b1b1eab7a19046612dfcc0c6135ac13f0a5b535",
        "sha256_in_prefix": "26fcdaa9755953940141f1125b1b1eab7a19046612dfcc0c6135ac13f0a5b535",
        "size_in_bytes": 14814
      },
      {
        "_path": "include/unicode/ucurr.h",
        "path_type": "hardlink",
        "sha256": "01bfb2450bcfdb85cabeab86f92ca757ba1f36cda629b515eecfb7f80f2778be",
        "sha256_in_prefix": "01bfb2450bcfdb85cabeab86f92ca757ba1f36cda629b515eecfb7f80f2778be",
        "size_in_bytes": 15528
      },
      {
        "_path": "include/unicode/udat.h",
        "path_type": "hardlink",
        "sha256": "bddb55e86b996681a1295f5a305cd0c723486d206da2717550ca4d69f6911f28",
        "sha256_in_prefix": "bddb55e86b996681a1295f5a305cd0c723486d206da2717550ca4d69f6911f28",
        "size_in_bytes": 61695
      },
      {
        "_path": "include/unicode/udata.h",
        "path_type": "hardlink",
        "sha256": "e34b915a6b2f9bbd12b4137ed82227c262c86d65563b8586af3c01a5d1159306",
        "sha256_in_prefix": "e34b915a6b2f9bbd12b4137ed82227c262c86d65563b8586af3c01a5d1159306",
        "size_in_bytes": 15919
      },
      {
        "_path": "include/unicode/udateintervalformat.h",
        "path_type": "hardlink",
        "sha256": "98aafbc0c283f602feb1f518c756696c18e9f74f77a9b4d02d94198ba48b0445",
        "sha256_in_prefix": "98aafbc0c283f602feb1f518c756696c18e9f74f77a9b4d02d94198ba48b0445",
        "size_in_bytes": 6961
      },
      {
        "_path": "include/unicode/udatpg.h",
        "path_type": "hardlink",
        "sha256": "bb3f8c694b7efff0066e14a2f8e48cff3d7eae760bb8f5fa3b1d87a7d1b2d4a2",
        "sha256_in_prefix": "bb3f8c694b7efff0066e14a2f8e48cff3d7eae760bb8f5fa3b1d87a7d1b2d4a2",
        "size_in_bytes": 24696
      },
      {
        "_path": "include/unicode/udisplaycontext.h",
        "path_type": "hardlink",
        "sha256": "ec39f8786f11e767713e4600961b8e5ea357e7a42f36bb987ebdfb199990611c",
        "sha256_in_prefix": "ec39f8786f11e767713e4600961b8e5ea357e7a42f36bb987ebdfb199990611c",
        "size_in_bytes": 6147
      },
      {
        "_path": "include/unicode/uenum.h",
        "path_type": "hardlink",
        "sha256": "a0885e725a34566e6f0b50bf2bb4b91634eb44a3e308ef75b5e547d48e527dc7",
        "sha256_in_prefix": "a0885e725a34566e6f0b50bf2bb4b91634eb44a3e308ef75b5e547d48e527dc7",
        "size_in_bytes": 8071
      },
      {
        "_path": "include/unicode/ufieldpositer.h",
        "path_type": "hardlink",
        "sha256": "40725cf530234d6adbf0e11ad522a6cec28b63fb0c3d86560004358a0ff08bdf",
        "sha256_in_prefix": "40725cf530234d6adbf0e11ad522a6cec28b63fb0c3d86560004358a0ff08bdf",
        "size_in_bytes": 4472
      },
      {
        "_path": "include/unicode/uformattable.h",
        "path_type": "hardlink",
        "sha256": "9bcd184c6ae015c87040e14560c2c135e2c75985b96797b2bcc711281c387260",
        "sha256_in_prefix": "9bcd184c6ae015c87040e14560c2c135e2c75985b96797b2bcc711281c387260",
        "size_in_bytes": 11206
      },
      {
        "_path": "include/unicode/ugender.h",
        "path_type": "hardlink",
        "sha256": "2121fef91fcc9f0055214ed3fb64b83fa27c253c81f3d12495d15553591c982b",
        "sha256_in_prefix": "2121fef91fcc9f0055214ed3fb64b83fa27c253c81f3d12495d15553591c982b",
        "size_in_bytes": 2063
      },
      {
        "_path": "include/unicode/uidna.h",
        "path_type": "hardlink",
        "sha256": "ec224995d04e9a3b62fa5353efe7aa4b3ae3eb5c394360a84b25165df858b276",
        "sha256_in_prefix": "ec224995d04e9a3b62fa5353efe7aa4b3ae3eb5c394360a84b25165df858b276",
        "size_in_bytes": 34183
      },
      {
        "_path": "include/unicode/uiter.h",
        "path_type": "hardlink",
        "sha256": "ebc8495fac85683b957ededbe66d5777a0f0d19b8fed70fd55c07ce93e203b5c",
        "sha256_in_prefix": "ebc8495fac85683b957ededbe66d5777a0f0d19b8fed70fd55c07ce93e203b5c",
        "size_in_bytes": 23333
      },
      {
        "_path": "include/unicode/uldnames.h",
        "path_type": "hardlink",
        "sha256": "25086311be149775c56be5d948171d6d053903c4bb7056734a5204da933ecab5",
        "sha256_in_prefix": "25086311be149775c56be5d948171d6d053903c4bb7056734a5204da933ecab5",
        "size_in_bytes": 10713
      },
      {
        "_path": "include/unicode/ulistformatter.h",
        "path_type": "hardlink",
        "sha256": "0ca3b85d2880aa308e82f4e1ae77c817efcc86782756d2fc32865023b1d2c289",
        "sha256_in_prefix": "0ca3b85d2880aa308e82f4e1ae77c817efcc86782756d2fc32865023b1d2c289",
        "size_in_bytes": 4664
      },
      {
        "_path": "include/unicode/uloc.h",
        "path_type": "hardlink",
        "sha256": "0db1830884de92e295dbd39c11b1b91aad0ed0c3dbe5a80d216e6cfc668b6b59",
        "sha256_in_prefix": "0db1830884de92e295dbd39c11b1b91aad0ed0c3dbe5a80d216e6cfc668b6b59",
        "size_in_bytes": 51267
      },
      {
        "_path": "include/unicode/ulocdata.h",
        "path_type": "hardlink",
        "sha256": "6708d2544fe32ffdc649ee246c787a9dbe420be71e16682108a2606d76cefd79",
        "sha256_in_prefix": "6708d2544fe32ffdc649ee246c787a9dbe420be71e16682108a2606d76cefd79",
        "size_in_bytes": 11538
      },
      {
        "_path": "include/unicode/umachine.h",
        "path_type": "hardlink",
        "sha256": "9c7b55d467145dd172ecc3a00fa043002f0192439f3b307392dfdc34c99887d5",
        "sha256_in_prefix": "9c7b55d467145dd172ecc3a00fa043002f0192439f3b307392dfdc34c99887d5",
        "size_in_bytes": 11841
      },
      {
        "_path": "include/unicode/umisc.h",
        "path_type": "hardlink",
        "sha256": "d1c6c110473634189e00b1493a7189ba94bdb26013be896e02ec86f148f7651a",
        "sha256_in_prefix": "d1c6c110473634189e00b1493a7189ba94bdb26013be896e02ec86f148f7651a",
        "size_in_bytes": 1379
      },
      {
        "_path": "include/unicode/umsg.h",
        "path_type": "hardlink",
        "sha256": "16073cacbf2a0f89c495f844351226204702a76e5f3dda159037c812a0b5e3e2",
        "sha256_in_prefix": "16073cacbf2a0f89c495f844351226204702a76e5f3dda159037c812a0b5e3e2",
        "size_in_bytes": 24826
      },
      {
        "_path": "include/unicode/unifilt.h",
        "path_type": "hardlink",
        "sha256": "281732b3b629ad75b0933ce8535251b188e17bb95e8c3bd885f00064fcea320d",
        "sha256_in_prefix": "281732b3b629ad75b0933ce8535251b188e17bb95e8c3bd885f00064fcea320d",
        "size_in_bytes": 3724
      },
      {
        "_path": "include/unicode/unifunct.h",
        "path_type": "hardlink",
        "sha256": "c8d72e57e357e2022cb17ac8925f22e37abf983b298dc67ef29d8db5ce774cd2",
        "sha256_in_prefix": "c8d72e57e357e2022cb17ac8925f22e37abf983b298dc67ef29d8db5ce774cd2",
        "size_in_bytes": 4090
      },
      {
        "_path": "include/unicode/unimatch.h",
        "path_type": "hardlink",
        "sha256": "cb07993e66d62b646b22b21441506b5c9db31c0ae4ed2482e16921115ee07418",
        "sha256_in_prefix": "cb07993e66d62b646b22b21441506b5c9db31c0ae4ed2482e16921115ee07418",
        "size_in_bytes": 6195
      },
      {
        "_path": "include/unicode/unirepl.h",
        "path_type": "hardlink",
        "sha256": "146c808bb91870965fb5e84b16590fde26adda23b9c54ab3515c3e05ab51ae55",
        "sha256_in_prefix": "146c808bb91870965fb5e84b16590fde26adda23b9c54ab3515c3e05ab51ae55",
        "size_in_bytes": 3414
      },
      {
        "_path": "include/unicode/uniset.h",
        "path_type": "hardlink",
        "sha256": "2e06317f777cb2cb96545eab32b0c3baacd07d7f93edbd1900965bd3e03ac4eb",
        "sha256_in_prefix": "2e06317f777cb2cb96545eab32b0c3baacd07d7f93edbd1900965bd3e03ac4eb",
        "size_in_bytes": 65521
      },
      {
        "_path": "include/unicode/unistr.h",
        "path_type": "hardlink",
        "sha256": "8549cc3e5ed2ec04401c3f04aeb9c304f40249cf08e5cc08b0fef0f7331fd146",
        "sha256_in_prefix": "8549cc3e5ed2ec04401c3f04aeb9c304f40249cf08e5cc08b0fef0f7331fd146",
        "size_in_bytes": 174066
      },
      {
        "_path": "include/unicode/unorm.h",
        "path_type": "hardlink",
        "sha256": "3e00209874d04ad032337e5ee3398f8db89de8e14362b8f3e2361a81a80d0e31",
        "sha256_in_prefix": "3e00209874d04ad032337e5ee3398f8db89de8e14362b8f3e2361a81a80d0e31",
        "size_in_bytes": 20917
      },
      {
        "_path": "include/unicode/unorm2.h",
        "path_type": "hardlink",
        "sha256": "17b2de1768549564b8364122727f6718f004b4f4df2b358b6c6820b489cf56a6",
        "sha256_in_prefix": "17b2de1768549564b8364122727f6718f004b4f4df2b358b6c6820b489cf56a6",
        "size_in_bytes": 25832
      },
      {
        "_path": "include/unicode/unum.h",
        "path_type": "hardlink",
        "sha256": "1645675db1f05af18828a76535b94f2eea94b2a2150dc1648b93aaf453bf9abf",
        "sha256_in_prefix": "1645675db1f05af18828a76535b94f2eea94b2a2150dc1648b93aaf453bf9abf",
        "size_in_bytes": 51209
      },
      {
        "_path": "include/unicode/unumsys.h",
        "path_type": "hardlink",
        "sha256": "2945055896d5e616f9c9ef6c95870a3653c3d5d0173b297997a49eadaa91ad2a",
        "sha256_in_prefix": "2945055896d5e616f9c9ef6c95870a3653c3d5d0173b297997a49eadaa91ad2a",
        "size_in_bytes": 7325
      },
      {
        "_path": "include/unicode/uobject.h",
        "path_type": "hardlink",
        "sha256": "fc1b93453dc294ea3fbfd0f92017d9e585419a41b6314772cf4fde697db21c25",
        "sha256_in_prefix": "fc1b93453dc294ea3fbfd0f92017d9e585419a41b6314772cf4fde697db21c25",
        "size_in_bytes": 10989
      },
      {
        "_path": "include/unicode/upluralrules.h",
        "path_type": "hardlink",
        "sha256": "70c239059c6ac3455be4cf47f8f56d2594f904976e4722d15366c03b9241fe2d",
        "sha256_in_prefix": "70c239059c6ac3455be4cf47f8f56d2594f904976e4722d15366c03b9241fe2d",
        "size_in_bytes": 4855
      },
      {
        "_path": "include/unicode/uregex.h",
        "path_type": "hardlink",
        "sha256": "9719398621a0b025888e7ba1547f997eedc32a4d4c6a51c01128c8d344a1ad0c",
        "sha256_in_prefix": "9719398621a0b025888e7ba1547f997eedc32a4d4c6a51c01128c8d344a1ad0c",
        "size_in_bytes": 73798
      },
      {
        "_path": "include/unicode/uregion.h",
        "path_type": "hardlink",
        "sha256": "6a0f8babeab6395610e9eb1ca0fbd806a04febd09171843ff896c7220e5f5966",
        "sha256_in_prefix": "6a0f8babeab6395610e9eb1ca0fbd806a04febd09171843ff896c7220e5f5966",
        "size_in_bytes": 10081
      },
      {
        "_path": "include/unicode/ureldatefmt.h",
        "path_type": "hardlink",
        "sha256": "9798465813c4ae75965faf6184f53b68533753255b1914792d451d08a0cd739c",
        "sha256_in_prefix": "9798465813c4ae75965faf6184f53b68533753255b1914792d451d08a0cd739c",
        "size_in_bytes": 12607
      },
      {
        "_path": "include/unicode/urename.h",
        "path_type": "hardlink",
        "sha256": "242332d20fa4b057d22df8a65cd51d6b920514581580e800e093be496659283c",
        "sha256_in_prefix": "242332d20fa4b057d22df8a65cd51d6b920514581580e800e093be496659283c",
        "size_in_bytes": 127198
      },
      {
        "_path": "include/unicode/urep.h",
        "path_type": "hardlink",
        "sha256": "3b55015896619a2f3b66e895cc7fed95ce891f98d64df7a6681b17d27d298d22",
        "sha256_in_prefix": "3b55015896619a2f3b66e895cc7fed95ce891f98d64df7a6681b17d27d298d22",
        "size_in_bytes": 5518
      },
      {
        "_path": "include/unicode/ures.h",
        "path_type": "hardlink",
        "sha256": "42a36b4ce8bc459a178fc680570cb603332551761ace6e9109ee63d94028cd65",
        "sha256_in_prefix": "42a36b4ce8bc459a178fc680570cb603332551761ace6e9109ee63d94028cd65",
        "size_in_bytes": 37407
      },
      {
        "_path": "include/unicode/uscript.h",
        "path_type": "hardlink",
        "sha256": "08a9b20d6c9396c9e8aa93a7cc8a5ff650196034519dc97b17d3b69d4ddaac91",
        "sha256_in_prefix": "08a9b20d6c9396c9e8aa93a7cc8a5ff650196034519dc97b17d3b69d4ddaac91",
        "size_in_bytes": 26272
      },
      {
        "_path": "include/unicode/usearch.h",
        "path_type": "hardlink",
        "sha256": "4476054c8b129c18ebb087092cbb173dc6bc6ec346435953340c516af431feab",
        "sha256_in_prefix": "4476054c8b129c18ebb087092cbb173dc6bc6ec346435953340c516af431feab",
        "size_in_bytes": 39061
      },
      {
        "_path": "include/unicode/uset.h",
        "path_type": "hardlink",
        "sha256": "5647a326eb19f70be6e931af7c2e67bab341d058ec75fe418cb40d4dfabbff01",
        "sha256_in_prefix": "5647a326eb19f70be6e931af7c2e67bab341d058ec75fe418cb40d4dfabbff01",
        "size_in_bytes": 40879
      },
      {
        "_path": "include/unicode/usetiter.h",
        "path_type": "hardlink",
        "sha256": "80fe2d9785619d3e0a6c7a98d56e25df9e10904024bd9fed00ea01ed8843f225",
        "sha256_in_prefix": "80fe2d9785619d3e0a6c7a98d56e25df9e10904024bd9fed00ea01ed8843f225",
        "size_in_bytes": 9730
      },
      {
        "_path": "include/unicode/ushape.h",
        "path_type": "hardlink",
        "sha256": "8e195b340054ddfdc8b08af1be78e8a5d56cf765a98922a900d0f72d0ef36a75",
        "sha256_in_prefix": "8e195b340054ddfdc8b08af1be78e8a5d56cf765a98922a900d0f72d0ef36a75",
        "size_in_bytes": 18445
      },
      {
        "_path": "include/unicode/uspoof.h",
        "path_type": "hardlink",
        "sha256": "f30f1e0a1ac5baac5b83a97d282a8fb336363d6004b6c44d760a18ce856ef994",
        "sha256_in_prefix": "f30f1e0a1ac5baac5b83a97d282a8fb336363d6004b6c44d760a18ce856ef994",
        "size_in_bytes": 66615
      },
      {
        "_path": "include/unicode/usprep.h",
        "path_type": "hardlink",
        "sha256": "b5158f66ce06b5d2883e95634a2e47a5515b91aa0425218f54789a329067bc16",
        "sha256_in_prefix": "b5158f66ce06b5d2883e95634a2e47a5515b91aa0425218f54789a329067bc16",
        "size_in_bytes": 8339
      },
      {
        "_path": "include/unicode/ustdio.h",
        "path_type": "hardlink",
        "sha256": "b194d83999dfbb2bf84a8eec0104dd8474abf863a720ffd833edde33e5bf876b",
        "sha256_in_prefix": "b194d83999dfbb2bf84a8eec0104dd8474abf863a720ffd833edde33e5bf876b",
        "size_in_bytes": 39480
      },
      {
        "_path": "include/unicode/ustream.h",
        "path_type": "hardlink",
        "sha256": "e0e1879b57848fa97c456b07ebe6b08891361ffe7111ee32e1641a30e0fb5dcd",
        "sha256_in_prefix": "e0e1879b57848fa97c456b07ebe6b08891361ffe7111ee32e1641a30e0fb5dcd",
        "size_in_bytes": 1963
      },
      {
        "_path": "include/unicode/ustring.h",
        "path_type": "hardlink",
        "sha256": "331bd5308edb4a53cf8a02430145a1b5507b8004eb01d90dc11a1289c0502f1d",
        "sha256_in_prefix": "331bd5308edb4a53cf8a02430145a1b5507b8004eb01d90dc11a1289c0502f1d",
        "size_in_bytes": 74556
      },
      {
        "_path": "include/unicode/ustringtrie.h",
        "path_type": "hardlink",
        "sha256": "cc65e340edad18fd6a1409fd999721f6df610a928b00e43d0a03294f2b7d5730",
        "sha256_in_prefix": "cc65e340edad18fd6a1409fd999721f6df610a928b00e43d0a03294f2b7d5730",
        "size_in_bytes": 3238
      },
      {
        "_path": "include/unicode/utext.h",
        "path_type": "hardlink",
        "sha256": "b581eec1c046f57a16e3bd377e11bf8da0f82bff24ddb40ade7455147409fa63",
        "sha256_in_prefix": "b581eec1c046f57a16e3bd377e11bf8da0f82bff24ddb40ade7455147409fa63",
        "size_in_bytes": 59483
      },
      {
        "_path": "include/unicode/utf.h",
        "path_type": "hardlink",
        "sha256": "b06c64154ec772bca9719a85a21ddd06a503e4800ad5cee0d1f4b2e426b2f3f1",
        "sha256_in_prefix": "b06c64154ec772bca9719a85a21ddd06a503e4800ad5cee0d1f4b2e426b2f3f1",
        "size_in_bytes": 7946
      },
      {
        "_path": "include/unicode/utf16.h",
        "path_type": "hardlink",
        "sha256": "6388b91a1f843fcbce5d9ebb87c20ba3b3066fec53b88216aa23ad0c33ecbbf6",
        "sha256_in_prefix": "6388b91a1f843fcbce5d9ebb87c20ba3b3066fec53b88216aa23ad0c33ecbbf6",
        "size_in_bytes": 19201
      },
      {
        "_path": "include/unicode/utf32.h",
        "path_type": "hardlink",
        "sha256": "0b0fcaf331cc52cb4c3fc5cb90abff05ec1dcb00648a2662e4487bc0023d4d7b",
        "sha256_in_prefix": "0b0fcaf331cc52cb4c3fc5cb90abff05ec1dcb00648a2662e4487bc0023d4d7b",
        "size_in_bytes": 777
      },
      {
        "_path": "include/unicode/utf8.h",
        "path_type": "hardlink",
        "sha256": "fd4d1fe7a48ef6fe477baad1cfbc42186738f9205535af0b1b492253dddb5bb8",
        "sha256_in_prefix": "fd4d1fe7a48ef6fe477baad1cfbc42186738f9205535af0b1b492253dddb5bb8",
        "size_in_bytes": 28409
      },
      {
        "_path": "include/unicode/utf_old.h",
        "path_type": "hardlink",
        "sha256": "a5def50ae9959a26510597e5f5c5e8bd5f935cdd6a8323c2de2b4365bb2bbe6f",
        "sha256_in_prefix": "a5def50ae9959a26510597e5f5c5e8bd5f935cdd6a8323c2de2b4365bb2bbe6f",
        "size_in_bytes": 43642
      },
      {
        "_path": "include/unicode/utmscale.h",
        "path_type": "hardlink",
        "sha256": "2826155e0de831a5ef57190c3d5b777cf3013753af0e43a3c206c510300483f9",
        "sha256_in_prefix": "2826155e0de831a5ef57190c3d5b777cf3013753af0e43a3c206c510300483f9",
        "size_in_bytes": 13813
      },
      {
        "_path": "include/unicode/utrace.h",
        "path_type": "hardlink",
        "sha256": "4fd91b7891869d651af6830f081cd1e3fc667efedad85947c657829acc60bbae",
        "sha256_in_prefix": "4fd91b7891869d651af6830f081cd1e3fc667efedad85947c657829acc60bbae",
        "size_in_bytes": 14233
      },
      {
        "_path": "include/unicode/utrans.h",
        "path_type": "hardlink",
        "sha256": "36818ed1d5813aa762b31af802526b89fd69af9d44174635288cd95b0a8639f6",
        "sha256_in_prefix": "36818ed1d5813aa762b31af802526b89fd69af9d44174635288cd95b0a8639f6",
        "size_in_bytes": 26156
      },
      {
        "_path": "include/unicode/utypes.h",
        "path_type": "hardlink",
        "sha256": "e4e28ea998fb4d8edb2073b67485afe28c4f9b148f70ebdea17fc07b29a52c5f",
        "sha256_in_prefix": "e4e28ea998fb4d8edb2073b67485afe28c4f9b148f70ebdea17fc07b29a52c5f",
        "size_in_bytes": 30637
      },
      {
        "_path": "include/unicode/uvernum.h",
        "path_type": "hardlink",
        "sha256": "4a2c860416b55f3eb478514897e3681efb67351c02c00066d3820700d45be9c5",
        "sha256_in_prefix": "4a2c860416b55f3eb478514897e3681efb67351c02c00066d3820700d45be9c5",
        "size_in_bytes": 5842
      },
      {
        "_path": "include/unicode/uversion.h",
        "path_type": "hardlink",
        "sha256": "d1b1eb45249a7ee3541b81c4c19dd3b3b1405476a9cbb8e0be90f7b686d19bd8",
        "sha256_in_prefix": "d1b1eb45249a7ee3541b81c4c19dd3b3b1405476a9cbb8e0be90f7b686d19bd8",
        "size_in_bytes": 6569
      },
      {
        "_path": "include/unicode/vtzone.h",
        "path_type": "hardlink",
        "sha256": "eacb293e9ba444273dfc9893f90d0f1d7657809e06bb12edcb466986d5d9673d",
        "sha256_in_prefix": "eacb293e9ba444273dfc9893f90d0f1d7657809e06bb12edcb466986d5d9673d",
        "size_in_bytes": 20662
      },
      {
        "_path": "lib/icu/58.2/Makefile.inc",
        "file_mode": "text",
        "path_type": "hardlink",
        "prefix_placeholder": "/opt/anaconda1anaconda2anaconda3",
        "sha256": "b636cc3d3409f7a76554a4958fbd52c040a529a738e4d817d2d8df36fc2b2592",
        "sha256_in_prefix": "68dd88968267e5b1fc6c41cabc0126e5c47f52fabe9967098a6992f9201197f4",
        "size_in_bytes": 10241
      },
      {
        "_path": "lib/icu/58.2/pkgdata.inc",
        "file_mode": "text",
        "path_type": "hardlink",
        "prefix_placeholder": "/opt/anaconda1anaconda2anaconda3",
        "sha256": "6d5a271eea9e3eef6fbe52ce753e51b9b06bbc9317decedd322122b3861b9609",
        "sha256_in_prefix": "b73d063f675ee39c371dab334eee78570ac9a1cc2f8e80c468e3b172a0a9bcec",
        "size_in_bytes": 1966
      },
      {
        "_path": "lib/icu/Makefile.inc",
        "path_type": "softlink",
        "sha256": "b636cc3d3409f7a76554a4958fbd52c040a529a738e4d817d2d8df36fc2b2592",
        "size_in_bytes": 10241
      },
      {
        "_path": "lib/icu/current",
        "path_type": "softlink",
        "size_in_bytes": 46
      },
      {
        "_path": "lib/icu/pkgdata.inc",
        "path_type": "softlink",
        "sha256": "6d5a271eea9e3eef6fbe52ce753e51b9b06bbc9317decedd322122b3861b9609",
        "size_in_bytes": 1966
      },
      {
        "_path": "lib/libicudata.a",
        "path_type": "hardlink",
        "sha256": "7e356d2090a8f8c5c61af5005bf755d1f9d8016785c258fd247e6d1f476add56",
        "sha256_in_prefix": "7e356d2090a8f8c5c61af5005bf755d1f9d8016785c258fd247e6d1f476add56",
        "size_in_bytes": 26214276
      },
      {
        "_path": "lib/libicudata.so",
        "path_type": "softlink",
        "sha256": "a46aa765fcb9c0b02604340683ea6519cf113e37e37a75dc770e06156838afb4",
        "size_in_bytes": 26219544
      },
      {
        "_path": "lib/libicudata.so.58",
        "path_type": "softlink",
        "sha256": "a46aa765fcb9c0b02604340683ea6519cf113e37e37a75dc770e06156838afb4",
        "size_in_bytes": 26219544
      },
      {
        "_path": "lib/libicudata.so.58.2",
        "path_type": "hardlink",
        "sha256": "a46aa765fcb9c0b02604340683ea6519cf113e37e37a75dc770e06156838afb4",
        "sha256_in_prefix": "a46aa765fcb9c0b02604340683ea6519cf113e37e37a75dc770e06156838afb4",
        "size_in_bytes": 26219544
      },
      {
        "_path": "lib/libicui18n.a",
        "path_type": "hardlink",
        "sha256": "df4f47d243392f616f15680800fd961fdcf488a763ad83af70a8817d90279a40",
        "sha256_in_prefix": "df4f47d243392f616f15680800fd961fdcf488a763ad83af70a8817d90279a40",
        "size_in_bytes": 6998272
      },
      {
        "_path": "lib/libicui18n.so",
        "path_type": "softlink",
        "sha256": "dcf48e110dec7f32075c4935b0e3d4d077a701241ff4c1628fd3051f514600a2",
        "size_in_bytes": 3264192
      },
      {
        "_path": "lib/libicui18n.so.58",
        "path_type": "softlink",
        "sha256": "dcf48e110dec7f32075c4935b0e3d4d077a701241ff4c1628fd3051f514600a2",
        "size_in_bytes": 3264192
      },
      {
        "_path": "lib/libicui18n.so.58.2",
        "path_type": "hardlink",
        "sha256": "dcf48e110dec7f32075c4935b0e3d4d077a701241ff4c1628fd3051f514600a2",
        "sha256_in_prefix": "dcf48e110dec7f32075c4935b0e3d4d077a701241ff4c1628fd3051f514600a2",
        "size_in_bytes": 3264192
      },
      {
        "_path": "lib/libicuio.a",
        "path_type": "hardlink",
        "sha256": "3d14671d887b6140b7fb24792e0d3666ab3b8d50be36974d1f88f091d936bbfb",
        "sha256_in_prefix": "3d14671d887b6140b7fb24792e0d3666ab3b8d50be36974d1f88f091d936bbfb",
        "size_in_bytes": 104870
      },
      {
        "_path": "lib/libicuio.so",
        "path_type": "softlink",
        "sha256": "be6c4cfe5f09faa3658dc204c37eed0343f734e47d247f1ca0badc10b7de5dc0",
        "size_in_bytes": 70632
      },
      {
        "_path": "lib/libicuio.so.58",
        "path_type": "softlink",
        "sha256": "be6c4cfe5f09faa3658dc204c37eed0343f734e47d247f1ca0badc10b7de5dc0",
        "size_in_bytes": 70632
      },
      {
        "_path": "lib/libicuio.so.58.2",
        "path_type": "hardlink",
        "sha256": "be6c4cfe5f09faa3658dc204c37eed0343f734e47d247f1ca0badc10b7de5dc0",
        "sha256_in_prefix": "be6c4cfe5f09faa3658dc204c37eed0343f734e47d247f1ca0badc10b7de5dc0",
        "size_in_bytes": 70632
      },
      {
        "_path": "lib/libicutest.a",
        "path_type": "hardlink",
        "sha256": "babb67961d6de7ef9e7273cfbb676d9447307cffb53e036e8f51a6353541efa9",
        "sha256_in_prefix": "babb67961d6de7ef9e7273cfbb676d9447307cffb53e036e8f51a6353541efa9",
        "size_in_bytes": 135924
      },
      {
        "_path": "lib/libicutest.so",
        "path_type": "softlink",
        "sha256": "3222d8bc21558a5fced0be87c0119df7027172ff80831f3c8880541360e572b2",
        "size_in_bytes": 89584
      },
      {
        "_path": "lib/libicutest.so.58",
        "path_type": "softlink",
        "sha256": "3222d8bc21558a5fced0be87c0119df7027172ff80831f3c8880541360e572b2",
        "size_in_bytes": 89584
      },
      {
        "_path": "lib/libicutest.so.58.2",
        "path_type": "hardlink",
        "sha256": "3222d8bc21558a5fced0be87c0119df7027172ff80831f3c8880541360e572b2",
        "sha256_in_prefix": "3222d8bc21558a5fced0be87c0119df7027172ff80831f3c8880541360e572b2",
        "size_in_bytes": 89584
      },
      {
        "_path": "lib/libicutu.a",
        "path_type": "hardlink",
        "sha256": "5704ce022a2d5ddf951a31a37447b72335fb4c1627d2c49f030e3d3ea1174773",
        "sha256_in_prefix": "5704ce022a2d5ddf951a31a37447b72335fb4c1627d2c49f030e3d3ea1174773",
        "size_in_bytes": 424038
      },
      {
        "_path": "lib/libicutu.so",
        "path_type": "softlink",
        "sha256": "a890876b7ed4c07d3c8e419d8d6a8bb8625ae5af59d82d8c2eac061500e11f23",
        "size_in_bytes": 252848
      },
      {
        "_path": "lib/libicutu.so.58",
        "path_type": "softlink",
        "sha256": "a890876b7ed4c07d3c8e419d8d6a8bb8625ae5af59d82d8c2eac061500e11f23",
        "size_in_bytes": 252848
      },
      {
        "_path": "lib/libicutu.so.58.2",
        "path_type": "hardlink",
        "sha256": "a890876b7ed4c07d3c8e419d8d6a8bb8625ae5af59d82d8c2eac061500e11f23",
        "sha256_in_prefix": "a890876b7ed4c07d3c8e419d8d6a8bb8625ae5af59d82d8c2eac061500e11f23",
        "size_in_bytes": 252848
      },
      {
        "_path": "lib/libicuuc.a",
        "path_type": "hardlink",
        "sha256": "4b33942b39c51b7348d2d945b373c373cc88783d80b88ae4c0c889a6e2cd5215",
        "sha256_in_prefix": "4b33942b39c51b7348d2d945b373c373cc88783d80b88ae4c0c889a6e2cd5215",
        "size_in_bytes": 3786612
      },
      {
        "_path": "lib/libicuuc.so",
        "path_type": "softlink",
        "sha256": "ea3f0729d3b45dc44d2bf582a7e9f473e32d51e7eab8f50a320ebe896d472600",
        "size_in_bytes": 2057656
      },
      {
        "_path": "lib/libicuuc.so.58",
        "path_type": "softlink",
        "sha256": "ea3f0729d3b45dc44d2bf582a7e9f473e32d51e7eab8f50a320ebe896d472600",
        "size_in_bytes": 2057656
      },
      {
        "_path": "lib/libicuuc.so.58.2",
        "path_type": "hardlink",
        "sha256": "ea3f0729d3b45dc44d2bf582a7e9f473e32d51e7eab8f50a320ebe896d472600",
        "sha256_in_prefix": "ea3f0729d3b45dc44d2bf582a7e9f473e32d51e7eab8f50a320ebe896d472600",
        "size_in_bytes": 2057656
      },
      {
        "_path": "lib/pkgconfig/icu-i18n.pc",
        "file_mode": "text",
        "path_type": "hardlink",
        "prefix_placeholder": "/opt/anaconda1anaconda2anaconda3",
        "sha256": "730b824c5d1ab1de38fdfd9e36bc177d16bbc853df0d3d374cc652d82066f0a9",
        "sha256_in_prefix": "e55860d3eeb155c50431302153e800d703e96655c8160a0357c3beff6011fd62",
        "size_in_bytes": 1267
      },
      {
        "_path": "lib/pkgconfig/icu-io.pc",
        "file_mode": "text",
        "path_type": "hardlink",
        "prefix_placeholder": "/opt/anaconda1anaconda2anaconda3",
        "sha256": "2a7ece445cb03abdb0a400ff74b06a5ef9148d60f39034a6a1c883b414b6c46c",
        "sha256_in_prefix": "afb1d3980b6db176e879cfa1270885975fbbb554d456223ebafa809356f56dca",
        "size_in_bytes": 1259
      },
      {
        "_path": "lib/pkgconfig/icu-uc.pc",
        "file_mode": "text",
        "path_type": "hardlink",
        "prefix_placeholder": "/opt/anaconda1anaconda2anaconda3",
        "sha256": "d02fa5dd53c3607d6257a3ef4845c82b52d98125cddb5f8b7c092280d31962d3",
        "sha256_in_prefix": "d71592c79b97018dc72d5b92c559d647788df94bbe15d3f7ec9fdf796f0d924b",
        "size_in_bytes": 1291
      },
      {
        "_path": "share/icu/58.2/LICENSE",
        "path_type": "hardlink",
        "sha256": "2023a2d68dfcdb1f7b7c5dccb96f88aabba112f63f250cb9e533cc64625eff07",
        "sha256_in_prefix": "2023a2d68dfcdb1f7b7c5dccb96f88aabba112f63f250cb9e533cc64625eff07",
        "size_in_bytes": 19442
      },
      {
        "_path": "share/icu/58.2/config/mh-linux",
        "path_type": "hardlink",
        "sha256": "548f780bb9caba18bfe613d4b8317f66ab0f07c58abfb7d9d6c0aa88c4fe9e74",
        "sha256_in_prefix": "548f780bb9caba18bfe613d4b8317f66ab0f07c58abfb7d9d6c0aa88c4fe9e74",
        "size_in_bytes": 2557
      },
      {
        "_path": "share/icu/58.2/install-sh",
        "path_type": "hardlink",
        "sha256": "810eb763e74ce800e5e90b8b2500137c45cedc05411f05da36a147d37cc1e20d",
        "sha256_in_prefix": "810eb763e74ce800e5e90b8b2500137c45cedc05411f05da36a147d37cc1e20d",
        "size_in_bytes": 5598
      },
      {
        "_path": "share/icu/58.2/mkinstalldirs",
        "path_type": "hardlink",
        "sha256": "8a9a3519bcec07a6688201483dd0dab54c5e2cb056a708d7df45486203d33d5f",
        "sha256_in_prefix": "8a9a3519bcec07a6688201483dd0dab54c5e2cb056a708d7df45486203d33d5f",
        "size_in_bytes": 1057
      },
      {
        "_path": "share/man/man1/derb.1",
        "path_type": "hardlink",
        "sha256": "0226543cef83f4f848b12a9a5b32924a42ddfe773763a8475fa6085109273bd1",
        "sha256_in_prefix": "0226543cef83f4f848b12a9a5b32924a42ddfe773763a8475fa6085109273bd1",
        "size_in_bytes": 4913
      },
      {
        "_path": "share/man/man1/genbrk.1",
        "path_type": "hardlink",
        "sha256": "0c0bae9cf433a2ccb6e48689a4939e496277756006c6928bdf4c9392c8cbea41",
        "sha256_in_prefix": "0c0bae9cf433a2ccb6e48689a4939e496277756006c6928bdf4c9392c8cbea41",
        "size_in_bytes": 2957
      },
      {
        "_path": "share/man/man1/gencfu.1",
        "path_type": "hardlink",
        "sha256": "dedf1e33d290c9c94e9737636871e7f4baeef59ca02e7a94063b13111db2bb77",
        "sha256_in_prefix": "dedf1e33d290c9c94e9737636871e7f4baeef59ca02e7a94063b13111db2bb77",
        "size_in_bytes": 2460
      },
      {
        "_path": "share/man/man1/gencnval.1",
        "path_type": "hardlink",
        "sha256": "603f716e6d6bf45cd64dacb02d950ab9aa8ce067db11b294d2bacc7781cfdf6f",
        "sha256_in_prefix": "603f716e6d6bf45cd64dacb02d950ab9aa8ce067db11b294d2bacc7781cfdf6f",
        "size_in_bytes": 2395
      },
      {
        "_path": "share/man/man1/gendict.1",
        "path_type": "hardlink",
        "sha256": "3b02b4a941d421345dd787998beea23165c3f7e1a7037da09848d4fe4c3c7539",
        "sha256_in_prefix": "3b02b4a941d421345dd787998beea23165c3f7e1a7037da09848d4fe4c3c7539",
        "size_in_bytes": 3399
      },
      {
        "_path": "share/man/man1/genrb.1",
        "path_type": "hardlink",
        "sha256": "a94890fc9bc316e4f807d6c94c749be2701f69eea039413b4492c21b07f8bb8a",
        "sha256_in_prefix": "a94890fc9bc316e4f807d6c94c749be2701f69eea039413b4492c21b07f8bb8a",
        "size_in_bytes": 3916
      },
      {
        "_path": "share/man/man1/icu-config.1",
        "path_type": "hardlink",
        "sha256": "6a539fb6cba07d3661f8633c8ff99c26d3833f550ce124e880c6fb30c2fcc3d8",
        "sha256_in_prefix": "6a539fb6cba07d3661f8633c8ff99c26d3833f550ce124e880c6fb30c2fcc3d8",
        "size_in_bytes": 7453
      },
      {
        "_path": "share/man/man1/makeconv.1",
        "path_type": "hardlink",
        "sha256": "24b6f792dcd7be2bd436cfe9cb3f31718c495e842a303c258fce4127f817b46f",
        "sha256_in_prefix": "24b6f792dcd7be2bd436cfe9cb3f31718c495e842a303c258fce4127f817b46f",
        "size_in_bytes": 3358
      },
      {
        "_path": "share/man/man1/pkgdata.1",
        "path_type": "hardlink",
        "sha256": "a6289bfdfefd8a7ce0dac6dab58cfa007914264751190ef09a1fb5e69b1c496f",
        "sha256_in_prefix": "a6289bfdfefd8a7ce0dac6dab58cfa007914264751190ef09a1fb5e69b1c496f",
        "size_in_bytes": 7089
      },
      {
        "_path": "share/man/man8/genccode.8",
        "path_type": "hardlink",
        "sha256": "ce812bc1bacd600e6d1defd12dfa26c2c54eff06673449c7a7c73ed7fca298ed",
        "sha256_in_prefix": "ce812bc1bacd600e6d1defd12dfa26c2c54eff06673449c7a7c73ed7fca298ed",
        "size_in_bytes": 2934
      },
      {
        "_path": "share/man/man8/gencmn.8",
        "path_type": "hardlink",
        "sha256": "0c59faf0843c566b6db516a26422020392011ca64e11b3371eedcf24cd571b12",
        "sha256_in_prefix": "0c59faf0843c566b6db516a26422020392011ca64e11b3371eedcf24cd571b12",
        "size_in_bytes": 3332
      },
      {
        "_path": "share/man/man8/gensprep.8",
        "path_type": "hardlink",
        "sha256": "8e297204e8617a561f4679eb510d0a2009ef9c44cb594b5a4c3b1b47e82d8ef4",
        "sha256_in_prefix": "8e297204e8617a561f4679eb510d0a2009ef9c44cb594b5a4c3b1b47e82d8ef4",
        "size_in_bytes": 2719
      },
      {
        "_path": "share/man/man8/icupkg.8",
        "path_type": "hardlink",
        "sha256": "35513f2a1d0f732710b999ca6b88d4fc822915cfc754687ddc51a45cd2f56557",
        "sha256_in_prefix": "35513f2a1d0f732710b999ca6b88d4fc822915cfc754687ddc51a45cd2f56557",
        "size_in_bytes": 5109
      }
    ],
    "paths_version": 1
  },
  "requested_spec": "None",
  "sha256": "fdf7a480fcb598d164cbd28d3ce015d7de52db30f76faf7a15fbb8bbc7b8c5af",
  "size": 11012106,
  "subdir": "linux-64",
  "timestamp": 1588026213084,
  "track_features": "",
  "url": "https://repo.anaconda.com/pkgs/main/linux-64/icu-58.2-he6710b0_3.conda",
  "version": "58.2"
}