{
  "arch": "x86_64",
  "build": "hb55368b_3",
  "build_number": 3,
  "depends": [
    "icu >=58.2,<59.0a0",
    "libgcc-ng >=7.3.0",
    "xz >=5.2.5,<6.0a0",
    "zlib >=1.2.11,<1.3.0a0"
  ],
  "license": "MIT",
  "license_family": "MIT",
  "name": "libxml2",
  "platform": "linux",
  "subdir": "linux-64",
  "timestamp": 1603239296279,
  "version": "2.9.10"
}